{
  "name": "js-npm",
  "version": "1.0.0",
  "lockfileVersion": 1,
  "requires": true,
  "dependencies": {
    "abab": {
      "version": "2.0.3",
      "resolved": "https://registry.npmjs.org/abab/-/abab-2.0.3.tgz",
      "integrity": "sha512-tsFzPpcttalNjFBCFMqsKYQcWxxen1pgJR56by//QwvJc4/OUS3kPOOttx2tSIfjsylB0pYu7f5D3K1RCxUnUg==",
      "dev": true
    },
    "acorn": {
      "version": "6.4.0",
      "resolved": "https://registry.npmjs.org/acorn/-/acorn-6.4.0.tgz",
      "integrity": "sha512-gac8OEcQ2Li1dxIEWGZzsp2BitJxwkwcOm0zHAJLcPJaVvm58FRnk6RkuLRpU1EujipU2ZFODv2P9DLMfnV8mw==",
      "dev": true
    },
    "acorn-globals": {
      "version": "4.3.4",
      "resolved": "https://registry.npmjs.org/acorn-globals/-/acorn-globals-4.3.4.tgz",
      "integrity": "sha512-clfQEh21R+D0leSbUdWf3OcfqyaCSAQ8Ryq00bofSekfr9W8u1jyYZo6ir0xu9Gtcf7BjcHJpnbZH7JOCpP60A==",
      "dev": true,
      "requires": {
        "acorn": "^6.0.1",
        "acorn-walk": "^6.0.1"
      }
    },
    "acorn-walk": {
      "version": "6.2.0",
      "resolved": "https://registry.npmjs.org/acorn-walk/-/acorn-walk-6.2.0.tgz",
      "integrity": "sha512-7evsyfH1cLOCdAzZAd43Cic04yKydNx0cF+7tiA19p1XnLLPU4dpCQOqpjqwokFe//vS0QqfqqjCS2JkiIs0cA==",
      "dev": true
    },
    "ajv": {
      "version": "6.10.2",
      "resolved": "https://registry.npmjs.org/ajv/-/ajv-6.10.2.tgz",
      "integrity": "sha512-TXtUUEYHuaTEbLZWIKUr5pmBuhDLy+8KYtPYdcV8qC+pOZL+NKqYwvWSRrVXHn+ZmRRAu8vJTAznH7Oag6RVRw==",
      "dev": true,
      "requires": {
        "fast-deep-equal": "^2.0.1",
        "fast-json-stable-stringify": "^2.0.0",
        "json-schema-traverse": "^0.4.1",
        "uri-js": "^4.2.2"
      }
    },
    "array-equal": {
      "version": "1.0.0",
      "resolved": "https://registry.npmjs.org/array-equal/-/array-equal-1.0.0.tgz",
      "integrity": "sha1-jCpe8kcv2ep0KwTHenUJO6J1fJM=",
      "dev": true
    },
    "asn1": {
      "version": "0.2.4",
      "resolved": "https://registry.npmjs.org/asn1/-/asn1-0.2.4.tgz",
      "integrity": "sha512-jxwzQpLQjSmWXgwaCZE9Nz+glAG01yF1QnWgbhGwHI5A6FRIEY6IVqtHhIepHqI7/kyEyQEagBC5mBEFlIYvdg==",
      "dev": true,
      "requires": {
        "safer-buffer": "~2.1.0"
      }
    },
    "assert-plus": {
      "version": "1.0.0",
      "resolved": "https://registry.npmjs.org/assert-plus/-/assert-plus-1.0.0.tgz",
      "integrity": "sha1-8S4PPF13sLHN2RRpQuTpbB5N1SU=",
      "dev": true
    },
    "async-limiter": {
      "version": "1.0.1",
      "resolved": "https://registry.npmjs.org/async-limiter/-/async-limiter-1.0.1.tgz",
      "integrity": "sha512-csOlWGAcRFJaI6m+F2WKdnMKr4HhdhFVBk0H/QbJFMCr+uO2kwohwXQPxw/9OCxp05r5ghVBFSyioixx3gfkNQ==",
      "dev": true
    },
    "asynckit": {
      "version": "0.4.0",
      "resolved": "https://registry.npmjs.org/asynckit/-/asynckit-0.4.0.tgz",
      "integrity": "sha1-x57Zf380y48robyXkLzDZkdLS3k=",
      "dev": true
    },
    "aws-sign2": {
      "version": "0.7.0",
      "resolved": "https://registry.npmjs.org/aws-sign2/-/aws-sign2-0.7.0.tgz",
      "integrity": "sha1-tG6JCTSpWR8tL2+G1+ap8bP+dqg=",
      "dev": true
    },
    "aws4": {
      "version": "1.9.0",
      "resolved": "https://registry.npmjs.org/aws4/-/aws4-1.9.0.tgz",
      "integrity": "sha512-Uvq6hVe90D0B2WEnUqtdgY1bATGz3mw33nH9Y+dmA+w5DHvUmBgkr5rM/KCHpCsiFNRUfokW/szpPPgMK2hm4A==",
      "dev": true
    },
    "bcrypt-pbkdf": {
      "version": "1.0.2",
      "resolved": "https://registry.npmjs.org/bcrypt-pbkdf/-/bcrypt-pbkdf-1.0.2.tgz",
      "integrity": "sha1-pDAdOJtqQ/m2f/PKEaP2Y342Dp4=",
      "dev": true,
      "requires": {
        "tweetnacl": "^0.14.3"
      }
    },
    "browser-process-hrtime": {
      "version": "0.1.3",
      "resolved": "https://registry.npmjs.org/browser-process-hrtime/-/browser-process-hrtime-0.1.3.tgz",
      "integrity": "sha512-bRFnI4NnjO6cnyLmOV/7PVoDEMJChlcfN0z4s1YMBY989/SvlfMI1lgCnkFUs53e9gQF+w7qu7XdllSTiSl8Aw==",
      "dev": true
    },
    "caseless": {
      "version": "0.12.0",
      "resolved": "https://registry.npmjs.org/caseless/-/caseless-0.12.0.tgz",
      "integrity": "sha1-G2gcIf+EAzyCZUMJBolCDRhxUdw=",
      "dev": true
    },
    "combined-stream": {
      "version": "1.0.8",
      "resolved": "https://registry.npmjs.org/combined-stream/-/combined-stream-1.0.8.tgz",
      "integrity": "sha512-FQN4MRfuJeHf7cBbBMJFXhKSDq+2kAArBlmRBvcvFE5BB1HZKXtSFASDhdlz9zOYwxh8lDdnvmMOe/+5cdoEdg==",
      "dev": true,
      "requires": {
        "delayed-stream": "~1.0.0"
      }
    },
    "core-util-is": {
      "version": "1.0.2",
      "resolved": "https://registry.npmjs.org/core-util-is/-/core-util-is-1.0.2.tgz",
      "integrity": "sha1-tf1UIgqivFq1eqtxQMlAdUUDwac=",
      "dev": true
    },
    "cssom": {
      "version": "0.3.8",
      "resolved": "https://registry.npmjs.org/cssom/-/cssom-0.3.8.tgz",
      "integrity": "sha512-b0tGHbfegbhPJpxpiBPU2sCkigAqtM9O121le6bbOlgyV+NyGyCmVfJ6QW9eRjz8CpNfWEOYBIMIGRYkLwsIYg==",
      "dev": true
    },
    "cssstyle": {
      "version": "1.4.0",
      "resolved": "https://registry.npmjs.org/cssstyle/-/cssstyle-1.4.0.tgz",
      "integrity": "sha512-GBrLZYZ4X4x6/QEoBnIrqb8B/f5l4+8me2dkom/j1Gtbxy0kBv6OGzKuAsGM75bkGwGAFkt56Iwg28S3XTZgSA==",
      "dev": true,
      "requires": {
        "cssom": "0.3.x"
      }
    },
    "dashdash": {
      "version": "1.14.1",
      "resolved": "https://registry.npmjs.org/dashdash/-/dashdash-1.14.1.tgz",
      "integrity": "sha1-hTz6D3y+L+1d4gMmuN1YEDX24vA=",
      "dev": true,
      "requires": {
        "assert-plus": "^1.0.0"
      }
    },
    "data-urls": {
      "version": "1.1.0",
      "resolved": "https://registry.npmjs.org/data-urls/-/data-urls-1.1.0.tgz",
      "integrity": "sha512-YTWYI9se1P55u58gL5GkQHW4P6VJBJ5iBT+B5a7i2Tjadhv52paJG0qHX4A0OR6/t52odI64KP2YvFpkDOi3eQ==",
      "dev": true,
      "requires": {
        "abab": "^2.0.0",
        "whatwg-mimetype": "^2.2.0",
        "whatwg-url": "^7.0.0"
      },
      "dependencies": {
        "whatwg-url": {
          "version": "7.1.0",
          "resolved": "https://registry.npmjs.org/whatwg-url/-/whatwg-url-7.1.0.tgz",
          "integrity": "sha512-WUu7Rg1DroM7oQvGWfOiAK21n74Gg+T4elXEQYkOhtyLeWiJFoOGLXPKI/9gzIie9CtwVLm8wtw6YJdKyxSjeg==",
          "dev": true,
          "requires": {
            "lodash.sortby": "^4.7.0",
            "tr46": "^1.0.1",
            "webidl-conversions": "^4.0.2"
          }
        }
      }
    },
    "deep-is": {
      "version": "0.1.3",
      "resolved": "https://registry.npmjs.org/deep-is/-/deep-is-0.1.3.tgz",
      "integrity": "sha1-s2nW+128E+7PUk+RsHD+7cNXzzQ=",
      "dev": true
    },
    "delayed-stream": {
      "version": "1.0.0",
      "resolved": "https://registry.npmjs.org/delayed-stream/-/delayed-stream-1.0.0.tgz",
      "integrity": "sha1-3zrhmayt+31ECqrgsp4icrJOxhk=",
      "dev": true
    },
    "domexception": {
      "version": "1.0.1",
      "resolved": "https://registry.npmjs.org/domexception/-/domexception-1.0.1.tgz",
      "integrity": "sha512-raigMkn7CJNNo6Ihro1fzG7wr3fHuYVytzquZKX5n0yizGsTcYgzdIUwj1X9pK0VvjeihV+XiclP+DjwbsSKug==",
      "dev": true,
      "requires": {
        "webidl-conversions": "^4.0.2"
      }
    },
    "ecc-jsbn": {
      "version": "0.1.2",
      "resolved": "https://registry.npmjs.org/ecc-jsbn/-/ecc-jsbn-0.1.2.tgz",
      "integrity": "sha1-OoOpBOVDUyh4dMVkt1SThoSamMk=",
      "dev": true,
      "requires": {
        "jsbn": "~0.1.0",
        "safer-buffer": "^2.1.0"
      }
    },
    "escodegen": {
      "version": "1.12.0",
      "resolved": "https://registry.npmjs.org/escodegen/-/escodegen-1.12.0.tgz",
      "integrity": "sha512-TuA+EhsanGcme5T3R0L80u4t8CpbXQjegRmf7+FPTJrtCTErXFeelblRgHQa1FofEzqYYJmJ/OqjTwREp9qgmg==",
      "dev": true,
      "requires": {
        "esprima": "^3.1.3",
        "estraverse": "^4.2.0",
        "esutils": "^2.0.2",
        "optionator": "^0.8.1",
        "source-map": "~0.6.1"
      },
      "dependencies": {
        "esprima": {
          "version": "3.1.3",
          "resolved": "https://registry.npmjs.org/esprima/-/esprima-3.1.3.tgz",
          "integrity": "sha1-/cpRzuYTOJXjyI1TXOSdv/YqRjM=",
          "dev": true
        },
        "source-map": {
          "version": "0.6.1",
          "resolved": "https://registry.npmjs.org/source-map/-/source-map-0.6.1.tgz",
          "integrity": "sha512-UjgapumWlbMhkBgzT7Ykc5YXUT46F0iKu8SGXq0bcwP5dz/h0Plj6enJqjz1Zbq2l5WaqYnrVbwWOWMyF3F47g==",
          "dev": true,
          "optional": true
        }
      }
    },
    "estraverse": {
      "version": "4.3.0",
      "resolved": "https://registry.npmjs.org/estraverse/-/estraverse-4.3.0.tgz",
      "integrity": "sha512-39nnKffWz8xN1BU/2c79n9nB9HDzo0niYUqx6xyqUnyoAnQyyWpOTdZEeiCch8BBu515t4wp9ZmgVfVhn9EBpw==",
      "dev": true
    },
    "esutils": {
      "version": "2.0.3",
      "resolved": "https://registry.npmjs.org/esutils/-/esutils-2.0.3.tgz",
      "integrity": "sha512-kVscqXk4OCp68SZ0dkgEKVi6/8ij300KBWTJq32P/dYeWTSwK41WyTxalN1eRmA5Z9UU/LX9D7FWSmV9SAYx6g==",
      "dev": true
    },
    "extend": {
      "version": "3.0.2",
      "resolved": "https://registry.npmjs.org/extend/-/extend-3.0.2.tgz",
      "integrity": "sha512-fjquC59cD7CyW6urNXK0FBufkZcoiGG80wTuPujX590cB5Ttln20E2UB4S/WARVqhXffZl2LNgS+gQdPIIim/g==",
      "dev": true
    },
    "extsprintf": {
      "version": "1.3.0",
      "resolved": "https://registry.npmjs.org/extsprintf/-/extsprintf-1.3.0.tgz",
      "integrity": "sha1-lpGEQOMEGnpBT4xS48V06zw+HgU=",
      "dev": true
    },
    "fast-deep-equal": {
      "version": "2.0.1",
      "resolved": "https://registry.npmjs.org/fast-deep-equal/-/fast-deep-equal-2.0.1.tgz",
      "integrity": "sha1-ewUhjd+WZ79/Nwv3/bLLFf3Qqkk=",
      "dev": true
    },
    "fast-json-stable-stringify": {
      "version": "2.0.0",
      "resolved": "https://registry.npmjs.org/fast-json-stable-stringify/-/fast-json-stable-stringify-2.0.0.tgz",
      "integrity": "sha1-1RQsDK7msRifh9OnYREGT4bIu/I=",
      "dev": true
    },
    "fast-levenshtein": {
      "version": "2.0.6",
      "resolved": "https://registry.npmjs.org/fast-levenshtein/-/fast-levenshtein-2.0.6.tgz",
      "integrity": "sha1-PYpcZog6FqMMqGQ+hR8Zuqd5eRc=",
      "dev": true
    },
    "forever-agent": {
      "version": "0.6.1",
      "resolved": "https://registry.npmjs.org/forever-agent/-/forever-agent-0.6.1.tgz",
      "integrity": "sha1-+8cfDEGt6zf5bFd60e1C2P2sypE=",
      "dev": true
    },
    "form-data": {
      "version": "2.3.3",
      "resolved": "https://registry.npmjs.org/form-data/-/form-data-2.3.3.tgz",
      "integrity": "sha512-1lLKB2Mu3aGP1Q/2eCOx0fNbRMe7XdwktwOruhfqqd0rIJWwN4Dh+E3hrPSlDCXnSR7UtZ1N38rVXm+6+MEhJQ==",
      "dev": true,
      "requires": {
        "asynckit": "^0.4.0",
        "combined-stream": "^1.0.6",
        "mime-types": "^2.1.12"
      }
    },
    "getpass": {
      "version": "0.1.7",
      "resolved": "https://registry.npmjs.org/getpass/-/getpass-0.1.7.tgz",
      "integrity": "sha1-Xv+OPmhNVprkyysSgmBOi6YhSfo=",
      "dev": true,
      "requires": {
        "assert-plus": "^1.0.0"
      }
    },
    "har-schema": {
      "version": "2.0.0",
      "resolved": "https://registry.npmjs.org/har-schema/-/har-schema-2.0.0.tgz",
      "integrity": "sha1-qUwiJOvKwEeCoNkDVSHyRzW37JI=",
      "dev": true
    },
    "har-validator": {
      "version": "5.1.3",
      "resolved": "https://registry.npmjs.org/har-validator/-/har-validator-5.1.3.tgz",
      "integrity": "sha512-sNvOCzEQNr/qrvJgc3UG/kD4QtlHycrzwS+6mfTrrSq97BvaYcPZZI1ZSqGSPR73Cxn4LKTD4PttRwfU7jWq5g==",
      "dev": true,
      "requires": {
        "ajv": "^6.5.5",
        "har-schema": "^2.0.0"
      }
    },
    "highlight.js": {
      "version": "9.16.2",
      "resolved": "https://registry.npmjs.org/highlight.js/-/highlight.js-9.16.2.tgz",
      "integrity": "sha512-feMUrVLZvjy0oC7FVJQcSQRqbBq9kwqnYE4+Kj9ZjbHh3g+BisiPgF49NyQbVLNdrL/qqZr3Ca9yOKwgn2i/tw=="
    },
    "html-encoding-sniffer": {
      "version": "1.0.2",
      "resolved": "https://registry.npmjs.org/html-encoding-sniffer/-/html-encoding-sniffer-1.0.2.tgz",
      "integrity": "sha512-71lZziiDnsuabfdYiUeWdCVyKuqwWi23L8YeIgV9jSSZHCtb6wB1BKWooH7L3tn4/FuZJMVWyNaIDr4RGmaSYw==",
      "dev": true,
      "requires": {
        "whatwg-encoding": "^1.0.1"
      }
    },
    "http-signature": {
      "version": "1.2.0",
      "resolved": "https://registry.npmjs.org/http-signature/-/http-signature-1.2.0.tgz",
      "integrity": "sha1-muzZJRFHcvPZW2WmCruPfBj7rOE=",
      "dev": true,
      "requires": {
        "assert-plus": "^1.0.0",
        "jsprim": "^1.2.2",
        "sshpk": "^1.7.0"
      }
    },
    "iconv-lite": {
      "version": "0.4.24",
      "resolved": "https://registry.npmjs.org/iconv-lite/-/iconv-lite-0.4.24.tgz",
      "integrity": "sha512-v3MXnZAcvnywkTUEZomIActle7RXXeedOR31wwl7VlyoXO4Qi9arvSenNQWne1TcRwhCL1HwLI21bEqdpj8/rA==",
      "dev": true,
      "requires": {
        "safer-buffer": ">= 2.1.2 < 3"
      }
    },
    "is-typedarray": {
      "version": "1.0.0",
      "resolved": "https://registry.npmjs.org/is-typedarray/-/is-typedarray-1.0.0.tgz",
      "integrity": "sha1-5HnICFjfDBsR3dppQPlgEfzaSpo=",
      "dev": true
    },
    "isstream": {
      "version": "0.1.2",
      "resolved": "https://registry.npmjs.org/isstream/-/isstream-0.1.2.tgz",
      "integrity": "sha1-R+Y/evVa+m+S4VAOaQ64uFKcCZo=",
      "dev": true
    },
    "jsbn": {
      "version": "0.1.1",
      "resolved": "https://registry.npmjs.org/jsbn/-/jsbn-0.1.1.tgz",
      "integrity": "sha1-peZUwuWi3rXyAdls77yoDA7y9RM=",
      "dev": true
    },
    "jsdom": {
      "version": "11.12.0",
      "resolved": "https://registry.npmjs.org/jsdom/-/jsdom-11.12.0.tgz",
      "integrity": "sha512-y8Px43oyiBM13Zc1z780FrfNLJCXTL40EWlty/LXUtcjykRBNgLlCjWXpfSPBl2iv+N7koQN+dvqszHZgT/Fjw==",
      "dev": true,
      "requires": {
        "abab": "^2.0.0",
        "acorn": "^5.5.3",
        "acorn-globals": "^4.1.0",
        "array-equal": "^1.0.0",
        "cssom": ">= 0.3.2 < 0.4.0",
        "cssstyle": "^1.0.0",
        "data-urls": "^1.0.0",
        "domexception": "^1.0.1",
        "escodegen": "^1.9.1",
        "html-encoding-sniffer": "^1.0.2",
        "left-pad": "^1.3.0",
        "nwsapi": "^2.0.7",
        "parse5": "4.0.0",
        "pn": "^1.1.0",
        "request": "^2.87.0",
        "request-promise-native": "^1.0.5",
        "sax": "^1.2.4",
        "symbol-tree": "^3.2.2",
        "tough-cookie": "^2.3.4",
        "w3c-hr-time": "^1.0.1",
        "webidl-conversions": "^4.0.2",
        "whatwg-encoding": "^1.0.3",
        "whatwg-mimetype": "^2.1.0",
        "whatwg-url": "^6.4.1",
        "ws": "^5.2.0",
        "xml-name-validator": "^3.0.0"
      },
      "dependencies": {
        "acorn": {
          "version": "5.7.3",
          "resolved": "https://registry.npmjs.org/acorn/-/acorn-5.7.3.tgz",
          "integrity": "sha512-T/zvzYRfbVojPWahDsE5evJdHb3oJoQfFbsrKM7w5Zcs++Tr257tia3BmMP8XYVjp1S9RZXQMh7gao96BlqZOw==",
          "dev": true
        },
        "ws": {
          "version": "5.2.2",
          "resolved": "https://registry.npmjs.org/ws/-/ws-5.2.2.tgz",
          "integrity": "sha512-jaHFD6PFv6UgoIVda6qZllptQsMlDEJkTQcybzzXDYM1XO9Y8em691FGMPmM46WGyLU4z9KMgQN+qrux/nhlHA==",
          "dev": true,
          "requires": {
            "async-limiter": "~1.0.0"
          }
        }
      }
    },
    "json-schema": {
      "version": "0.2.3",
      "resolved": "https://registry.npmjs.org/json-schema/-/json-schema-0.2.3.tgz",
      "integrity": "sha1-tIDIkuWaLwWVTOcnvT8qTogvnhM=",
      "dev": true
    },
    "json-schema-traverse": {
      "version": "0.4.1",
      "resolved": "https://registry.npmjs.org/json-schema-traverse/-/json-schema-traverse-0.4.1.tgz",
      "integrity": "sha512-xbbCH5dCYU5T8LcEhhuh7HJ88HXuW3qsI3Y0zOZFKfZEHcpWiHU/Jxzk629Brsab/mMiHQti9wMP+845RPe3Vg==",
      "dev": true
    },
    "json-stringify-safe": {
      "version": "5.0.1",
      "resolved": "https://registry.npmjs.org/json-stringify-safe/-/json-stringify-safe-5.0.1.tgz",
      "integrity": "sha1-Epai1Y/UXxmg9s4B1lcB4sc1tus=",
      "dev": true
    },
    "jsprim": {
      "version": "1.4.1",
      "resolved": "https://registry.npmjs.org/jsprim/-/jsprim-1.4.1.tgz",
      "integrity": "sha1-MT5mvB5cwG5Di8G3SZwuXFastqI=",
      "dev": true,
      "requires": {
        "assert-plus": "1.0.0",
        "extsprintf": "1.3.0",
        "json-schema": "0.2.3",
        "verror": "1.10.0"
      }
    },
    "left-pad": {
      "version": "1.3.0",
      "resolved": "https://registry.npmjs.org/left-pad/-/left-pad-1.3.0.tgz",
      "integrity": "sha512-XI5MPzVNApjAyhQzphX8BkmKsKUxD4LdyK24iZeQGinBN9yTQT3bFlCBy/aVx2HrNcqQGsdot8ghrjyrvMCoEA==",
      "dev": true
    },
    "levn": {
      "version": "0.3.0",
      "resolved": "https://registry.npmjs.org/levn/-/levn-0.3.0.tgz",
      "integrity": "sha1-OwmSTt+fCDwEkP3UwLxEIeBHZO4=",
      "dev": true,
      "requires": {
        "prelude-ls": "~1.1.2",
        "type-check": "~0.3.2"
      }
    },
    "lodash": {
      "version": "4.17.15",
      "resolved": "https://registry.npmjs.org/lodash/-/lodash-4.17.15.tgz",
      "integrity": "sha512-8xOcRHvCjnocdS5cpwXQXVzmmh5e5+saE2QGoeQmbKmRS6J3VQppPOIt0MnmE+4xlZoumy0GPG0D0MVIQbNA1A==",
      "dev": true
    },
    "lodash.sortby": {
      "version": "4.7.0",
      "resolved": "https://registry.npmjs.org/lodash.sortby/-/lodash.sortby-4.7.0.tgz",
      "integrity": "sha1-7dFMgk4sycHgsKG0K7UhBRakJDg=",
      "dev": true
    },
    "mime-db": {
      "version": "1.42.0",
      "resolved": "https://registry.npmjs.org/mime-db/-/mime-db-1.42.0.tgz",
      "integrity": "sha512-UbfJCR4UAVRNgMpfImz05smAXK7+c+ZntjaA26ANtkXLlOe947Aag5zdIcKQULAiF9Cq4WxBi9jUs5zkA84bYQ==",
      "dev": true
    },
    "mime-types": {
      "version": "2.1.25",
      "resolved": "https://registry.npmjs.org/mime-types/-/mime-types-2.1.25.tgz",
      "integrity": "sha512-5KhStqB5xpTAeGqKBAMgwaYMnQik7teQN4IAzC7npDv6kzeU6prfkR67bc87J1kWMPGkoaZSq1npmexMgkmEVg==",
      "dev": true,
      "requires": {
        "mime-db": "1.42.0"
      }
    },
    "moment": {
      "version": "2.24.0",
      "resolved": "https://registry.npmjs.org/moment/-/moment-2.24.0.tgz",
      "integrity": "sha512-bV7f+6l2QigeBBZSM/6yTNq4P2fNpSWj/0e7jQcy87A8e7o2nAfP/34/2ky5Vw4B9S446EtIhodAzkFCcR4dQg=="
    },
    "normalize.css": {
      "version": "7.0.0",
      "resolved": "https://registry.npmjs.org/normalize.css/-/normalize.css-7.0.0.tgz",
      "integrity": "sha1-q/sd2CRwZ04DIrU86xqvQSk45L8="
    },
    "nwsapi": {
      "version": "2.2.0",
      "resolved": "https://registry.npmjs.org/nwsapi/-/nwsapi-2.2.0.tgz",
      "integrity": "sha512-h2AatdwYH+JHiZpv7pt/gSX1XoRGb7L/qSIeuqA6GwYoF9w1vP1cw42TO0aI2pNyshRK5893hNSl+1//vHK7hQ==",
      "dev": true
    },
    "nyc": {
      "version": "11.9.0",
      "resolved": "https://registry.npmjs.org/nyc/-/nyc-11.9.0.tgz",
      "integrity": "sha512-w8OdJAhXL5izerzZMdqzYKMj/pgHJyY3qEPYBjLLxrhcVoHEY9pU5ENIiZyCgG9OR7x3VcUMoD40o6PtVpfR4g==",
      "dev": true,
      "requires": {
        "archy": "^1.0.0",
        "arrify": "^1.0.1",
        "caching-transform": "^1.0.0",
        "convert-source-map": "^1.5.1",
        "debug-log": "^1.0.1",
        "default-require-extensions": "^1.0.0",
        "find-cache-dir": "^0.1.1",
        "find-up": "^2.1.0",
        "foreground-child": "^1.5.3",
        "glob": "^7.0.6",
        "istanbul-lib-coverage": "^1.1.2",
        "istanbul-lib-hook": "^1.1.0",
        "istanbul-lib-instrument": "^1.10.0",
        "istanbul-lib-report": "^1.1.3",
        "istanbul-lib-source-maps": "^1.2.3",
        "istanbul-reports": "^1.4.0",
        "md5-hex": "^1.2.0",
        "merge-source-map": "^1.1.0",
        "micromatch": "^3.1.10",
        "mkdirp": "^0.5.0",
        "resolve-from": "^2.0.0",
        "rimraf": "^2.6.2",
        "signal-exit": "^3.0.1",
        "spawn-wrap": "^1.4.2",
        "test-exclude": "^4.2.0",
        "yargs": "11.1.0",
        "yargs-parser": "^8.0.0"
      },
      "dependencies": {
        "align-text": {
          "version": "0.1.4",
          "bundled": true,
          "dev": true,
          "optional": true,
          "requires": {
            "kind-of": "^3.0.2",
            "longest": "^1.0.1",
            "repeat-string": "^1.5.2"
          }
        },
        "amdefine": {
          "version": "1.0.1",
          "bundled": true,
          "dev": true
        },
        "ansi-regex": {
          "version": "2.1.1",
          "bundled": true,
          "dev": true
        },
        "ansi-styles": {
          "version": "2.2.1",
          "bundled": true,
          "dev": true
        },
        "append-transform": {
          "version": "0.4.0",
          "bundled": true,
          "dev": true,
          "requires": {
            "default-require-extensions": "^1.0.0"
          }
        },
        "archy": {
          "version": "1.0.0",
          "bundled": true,
          "dev": true
        },
        "arr-diff": {
          "version": "4.0.0",
          "bundled": true,
          "dev": true
        },
        "arr-flatten": {
          "version": "1.1.0",
          "bundled": true,
          "dev": true
        },
        "arr-union": {
          "version": "3.1.0",
          "bundled": true,
          "dev": true
        },
        "array-unique": {
          "version": "0.3.2",
          "bundled": true,
          "dev": true
        },
        "arrify": {
          "version": "1.0.1",
          "bundled": true,
          "dev": true
        },
        "assign-symbols": {
          "version": "1.0.0",
          "bundled": true,
          "dev": true
        },
        "async": {
          "version": "1.5.2",
          "bundled": true,
          "dev": true
        },
        "atob": {
          "version": "2.1.1",
          "bundled": true,
          "dev": true
        },
        "babel-code-frame": {
          "version": "6.26.0",
          "bundled": true,
          "dev": true,
          "requires": {
            "chalk": "^1.1.3",
            "esutils": "^2.0.2",
            "js-tokens": "^3.0.2"
          }
        },
        "babel-generator": {
          "version": "6.26.1",
          "bundled": true,
          "dev": true,
          "requires": {
            "babel-messages": "^6.23.0",
            "babel-runtime": "^6.26.0",
            "babel-types": "^6.26.0",
            "detect-indent": "^4.0.0",
            "jsesc": "^1.3.0",
            "lodash": "^4.17.4",
            "source-map": "^0.5.7",
            "trim-right": "^1.0.1"
          }
        },
        "babel-messages": {
          "version": "6.23.0",
          "bundled": true,
          "dev": true,
          "requires": {
            "babel-runtime": "^6.22.0"
          }
        },
        "babel-runtime": {
          "version": "6.26.0",
          "bundled": true,
          "dev": true,
          "requires": {
            "core-js": "^2.4.0",
            "regenerator-runtime": "^0.11.0"
          }
        },
        "babel-template": {
          "version": "6.26.0",
          "bundled": true,
          "dev": true,
          "requires": {
            "babel-runtime": "^6.26.0",
            "babel-traverse": "^6.26.0",
            "babel-types": "^6.26.0",
            "babylon": "^6.18.0",
            "lodash": "^4.17.4"
          }
        },
        "babel-traverse": {
          "version": "6.26.0",
          "bundled": true,
          "dev": true,
          "requires": {
            "babel-code-frame": "^6.26.0",
            "babel-messages": "^6.23.0",
            "babel-runtime": "^6.26.0",
            "babel-types": "^6.26.0",
            "babylon": "^6.18.0",
            "debug": "^2.6.8",
            "globals": "^9.18.0",
            "invariant": "^2.2.2",
            "lodash": "^4.17.4"
          }
        },
        "babel-types": {
          "version": "6.26.0",
          "bundled": true,
          "dev": true,
          "requires": {
            "babel-runtime": "^6.26.0",
            "esutils": "^2.0.2",
            "lodash": "^4.17.4",
            "to-fast-properties": "^1.0.3"
          }
        },
        "babylon": {
          "version": "6.18.0",
          "bundled": true,
          "dev": true
        },
        "balanced-match": {
          "version": "1.0.0",
          "bundled": true,
          "dev": true
        },
        "base": {
          "version": "0.11.2",
          "bundled": true,
          "dev": true,
          "requires": {
            "cache-base": "^1.0.1",
            "class-utils": "^0.3.5",
            "component-emitter": "^1.2.1",
            "define-property": "^1.0.0",
            "isobject": "^3.0.1",
            "mixin-deep": "^1.2.0",
            "pascalcase": "^0.1.1"
          },
          "dependencies": {
            "define-property": {
              "version": "1.0.0",
              "bundled": true,
              "dev": true,
              "requires": {
                "is-descriptor": "^1.0.0"
              }
            },
            "is-accessor-descriptor": {
              "version": "1.0.0",
              "bundled": true,
              "dev": true,
              "requires": {
                "kind-of": "^6.0.0"
              }
            },
            "is-data-descriptor": {
              "version": "1.0.0",
              "bundled": true,
              "dev": true,
              "requires": {
                "kind-of": "^6.0.0"
              }
            },
            "is-descriptor": {
              "version": "1.0.2",
              "bundled": true,
              "dev": true,
              "requires": {
                "is-accessor-descriptor": "^1.0.0",
                "is-data-descriptor": "^1.0.0",
                "kind-of": "^6.0.2"
              }
            },
            "isobject": {
              "version": "3.0.1",
              "bundled": true,
              "dev": true
            },
            "kind-of": {
              "version": "6.0.2",
              "bundled": true,
              "dev": true
            }
          }
        },
        "brace-expansion": {
          "version": "1.1.11",
          "bundled": true,
          "dev": true,
          "requires": {
            "balanced-match": "^1.0.0",
            "concat-map": "0.0.1"
          }
        },
        "braces": {
          "version": "2.3.2",
          "bundled": true,
          "dev": true,
          "requires": {
            "arr-flatten": "^1.1.0",
            "array-unique": "^0.3.2",
            "extend-shallow": "^2.0.1",
            "fill-range": "^4.0.0",
            "isobject": "^3.0.1",
            "repeat-element": "^1.1.2",
            "snapdragon": "^0.8.1",
            "snapdragon-node": "^2.0.1",
            "split-string": "^3.0.2",
            "to-regex": "^3.0.1"
          },
          "dependencies": {
            "extend-shallow": {
              "version": "2.0.1",
              "bundled": true,
              "dev": true,
              "requires": {
                "is-extendable": "^0.1.0"
              }
            }
          }
        },
        "builtin-modules": {
          "version": "1.1.1",
          "bundled": true,
          "dev": true
        },
        "cache-base": {
          "version": "1.0.1",
          "bundled": true,
          "dev": true,
          "requires": {
            "collection-visit": "^1.0.0",
            "component-emitter": "^1.2.1",
            "get-value": "^2.0.6",
            "has-value": "^1.0.0",
            "isobject": "^3.0.1",
            "set-value": "^2.0.0",
            "to-object-path": "^0.3.0",
            "union-value": "^1.0.0",
            "unset-value": "^1.0.0"
          },
          "dependencies": {
            "isobject": {
              "version": "3.0.1",
              "bundled": true,
              "dev": true
            }
          }
        },
        "caching-transform": {
          "version": "1.0.1",
          "bundled": true,
          "dev": true,
          "requires": {
            "md5-hex": "^1.2.0",
            "mkdirp": "^0.5.1",
            "write-file-atomic": "^1.1.4"
          }
        },
        "camelcase": {
          "version": "1.2.1",
          "bundled": true,
          "dev": true,
          "optional": true
        },
        "center-align": {
          "version": "0.1.3",
          "bundled": true,
          "dev": true,
          "optional": true,
          "requires": {
            "align-text": "^0.1.3",
            "lazy-cache": "^1.0.3"
          }
        },
        "chalk": {
          "version": "1.1.3",
          "bundled": true,
          "dev": true,
          "requires": {
            "ansi-styles": "^2.2.1",
            "escape-string-regexp": "^1.0.2",
            "has-ansi": "^2.0.0",
            "strip-ansi": "^3.0.0",
            "supports-color": "^2.0.0"
          }
        },
        "class-utils": {
          "version": "0.3.6",
          "bundled": true,
          "dev": true,
          "requires": {
            "arr-union": "^3.1.0",
            "define-property": "^0.2.5",
            "isobject": "^3.0.0",
            "static-extend": "^0.1.1"
          },
          "dependencies": {
            "define-property": {
              "version": "0.2.5",
              "bundled": true,
              "dev": true,
              "requires": {
                "is-descriptor": "^0.1.0"
              }
            },
            "isobject": {
              "version": "3.0.1",
              "bundled": true,
              "dev": true
            }
          }
        },
        "cliui": {
          "version": "2.1.0",
          "bundled": true,
          "dev": true,
          "optional": true,
          "requires": {
            "center-align": "^0.1.1",
            "right-align": "^0.1.1",
            "wordwrap": "0.0.2"
          },
          "dependencies": {
            "wordwrap": {
              "version": "0.0.2",
              "bundled": true,
              "dev": true,
              "optional": true
            }
          }
        },
        "code-point-at": {
          "version": "1.1.0",
          "bundled": true,
          "dev": true
        },
        "collection-visit": {
          "version": "1.0.0",
          "bundled": true,
          "dev": true,
          "requires": {
            "map-visit": "^1.0.0",
            "object-visit": "^1.0.0"
          }
        },
        "commondir": {
          "version": "1.0.1",
          "bundled": true,
          "dev": true
        },
        "component-emitter": {
          "version": "1.2.1",
          "bundled": true,
          "dev": true
        },
        "concat-map": {
          "version": "0.0.1",
          "bundled": true,
          "dev": true
        },
        "convert-source-map": {
          "version": "1.5.1",
          "bundled": true,
          "dev": true
        },
        "copy-descriptor": {
          "version": "0.1.1",
          "bundled": true,
          "dev": true
        },
        "core-js": {
          "version": "2.5.6",
          "bundled": true,
          "dev": true
        },
        "cross-spawn": {
          "version": "4.0.2",
          "bundled": true,
          "dev": true,
          "requires": {
            "lru-cache": "^4.0.1",
            "which": "^1.2.9"
          }
        },
        "debug": {
          "version": "2.6.9",
          "bundled": true,
          "dev": true,
          "requires": {
            "ms": "2.0.0"
          }
        },
        "debug-log": {
          "version": "1.0.1",
          "bundled": true,
          "dev": true
        },
        "decamelize": {
          "version": "1.2.0",
          "bundled": true,
          "dev": true
        },
        "decode-uri-component": {
          "version": "0.2.0",
          "bundled": true,
          "dev": true
        },
        "default-require-extensions": {
          "version": "1.0.0",
          "bundled": true,
          "dev": true,
          "requires": {
            "strip-bom": "^2.0.0"
          }
        },
        "define-property": {
          "version": "2.0.2",
          "bundled": true,
          "dev": true,
          "requires": {
            "is-descriptor": "^1.0.2",
            "isobject": "^3.0.1"
          },
          "dependencies": {
            "is-accessor-descriptor": {
              "version": "1.0.0",
              "bundled": true,
              "dev": true,
              "requires": {
                "kind-of": "^6.0.0"
              }
            },
            "is-data-descriptor": {
              "version": "1.0.0",
              "bundled": true,
              "dev": true,
              "requires": {
                "kind-of": "^6.0.0"
              }
            },
            "is-descriptor": {
              "version": "1.0.2",
              "bundled": true,
              "dev": true,
              "requires": {
                "is-accessor-descriptor": "^1.0.0",
                "is-data-descriptor": "^1.0.0",
                "kind-of": "^6.0.2"
              }
            },
            "isobject": {
              "version": "3.0.1",
              "bundled": true,
              "dev": true
            },
            "kind-of": {
              "version": "6.0.2",
              "bundled": true,
              "dev": true
            }
          }
        },
        "detect-indent": {
          "version": "4.0.0",
          "bundled": true,
          "dev": true,
          "requires": {
            "repeating": "^2.0.0"
          }
        },
        "error-ex": {
          "version": "1.3.1",
          "bundled": true,
          "dev": true,
          "requires": {
            "is-arrayish": "^0.2.1"
          }
        },
        "escape-string-regexp": {
          "version": "1.0.5",
          "bundled": true,
          "dev": true
        },
        "esutils": {
          "version": "2.0.2",
          "bundled": true,
          "dev": true
        },
        "execa": {
          "version": "0.7.0",
          "bundled": true,
          "dev": true,
          "requires": {
            "cross-spawn": "^5.0.1",
            "get-stream": "^3.0.0",
            "is-stream": "^1.1.0",
            "npm-run-path": "^2.0.0",
            "p-finally": "^1.0.0",
            "signal-exit": "^3.0.0",
            "strip-eof": "^1.0.0"
          },
          "dependencies": {
            "cross-spawn": {
              "version": "5.1.0",
              "bundled": true,
              "dev": true,
              "requires": {
                "lru-cache": "^4.0.1",
                "shebang-command": "^1.2.0",
                "which": "^1.2.9"
              }
            }
          }
        },
        "expand-brackets": {
          "version": "2.1.4",
          "bundled": true,
          "dev": true,
          "requires": {
            "debug": "^2.3.3",
            "define-property": "^0.2.5",
            "extend-shallow": "^2.0.1",
            "posix-character-classes": "^0.1.0",
            "regex-not": "^1.0.0",
            "snapdragon": "^0.8.1",
            "to-regex": "^3.0.1"
          },
          "dependencies": {
            "define-property": {
              "version": "0.2.5",
              "bundled": true,
              "dev": true,
              "requires": {
                "is-descriptor": "^0.1.0"
              }
            },
            "extend-shallow": {
              "version": "2.0.1",
              "bundled": true,
              "dev": true,
              "requires": {
                "is-extendable": "^0.1.0"
              }
            }
          }
        },
        "extend-shallow": {
          "version": "3.0.2",
          "bundled": true,
          "dev": true,
          "requires": {
            "assign-symbols": "^1.0.0",
            "is-extendable": "^1.0.1"
          },
          "dependencies": {
            "is-extendable": {
              "version": "1.0.1",
              "bundled": true,
              "dev": true,
              "requires": {
                "is-plain-object": "^2.0.4"
              }
            }
          }
        },
        "extglob": {
          "version": "2.0.4",
          "bundled": true,
          "dev": true,
          "requires": {
            "array-unique": "^0.3.2",
            "define-property": "^1.0.0",
            "expand-brackets": "^2.1.4",
            "extend-shallow": "^2.0.1",
            "fragment-cache": "^0.2.1",
            "regex-not": "^1.0.0",
            "snapdragon": "^0.8.1",
            "to-regex": "^3.0.1"
          },
          "dependencies": {
            "define-property": {
              "version": "1.0.0",
              "bundled": true,
              "dev": true,
              "requires": {
                "is-descriptor": "^1.0.0"
              }
            },
            "extend-shallow": {
              "version": "2.0.1",
              "bundled": true,
              "dev": true,
              "requires": {
                "is-extendable": "^0.1.0"
              }
            },
            "is-accessor-descriptor": {
              "version": "1.0.0",
              "bundled": true,
              "dev": true,
              "requires": {
                "kind-of": "^6.0.0"
              }
            },
            "is-data-descriptor": {
              "version": "1.0.0",
              "bundled": true,
              "dev": true,
              "requires": {
                "kind-of": "^6.0.0"
              }
            },
            "is-descriptor": {
              "version": "1.0.2",
              "bundled": true,
              "dev": true,
              "requires": {
                "is-accessor-descriptor": "^1.0.0",
                "is-data-descriptor": "^1.0.0",
                "kind-of": "^6.0.2"
              }
            },
            "kind-of": {
              "version": "6.0.2",
              "bundled": true,
              "dev": true
            }
          }
        },
        "fill-range": {
          "version": "4.0.0",
          "bundled": true,
          "dev": true,
          "requires": {
            "extend-shallow": "^2.0.1",
            "is-number": "^3.0.0",
            "repeat-string": "^1.6.1",
            "to-regex-range": "^2.1.0"
          },
          "dependencies": {
            "extend-shallow": {
              "version": "2.0.1",
              "bundled": true,
              "dev": true,
              "requires": {
                "is-extendable": "^0.1.0"
              }
            }
          }
        },
        "find-cache-dir": {
          "version": "0.1.1",
          "bundled": true,
          "dev": true,
          "requires": {
            "commondir": "^1.0.1",
            "mkdirp": "^0.5.1",
            "pkg-dir": "^1.0.0"
          }
        },
        "find-up": {
          "version": "2.1.0",
          "bundled": true,
          "dev": true,
          "requires": {
            "locate-path": "^2.0.0"
          }
        },
        "for-in": {
          "version": "1.0.2",
          "bundled": true,
          "dev": true
        },
        "foreground-child": {
          "version": "1.5.6",
          "bundled": true,
          "dev": true,
          "requires": {
            "cross-spawn": "^4",
            "signal-exit": "^3.0.0"
          }
        },
        "fragment-cache": {
          "version": "0.2.1",
          "bundled": true,
          "dev": true,
          "requires": {
            "map-cache": "^0.2.2"
          }
        },
        "fs.realpath": {
          "version": "1.0.0",
          "bundled": true,
          "dev": true
        },
        "get-caller-file": {
          "version": "1.0.2",
          "bundled": true,
          "dev": true
        },
        "get-stream": {
          "version": "3.0.0",
          "bundled": true,
          "dev": true
        },
        "get-value": {
          "version": "2.0.6",
          "bundled": true,
          "dev": true
        },
        "glob": {
          "version": "7.1.2",
          "bundled": true,
          "dev": true,
          "requires": {
            "fs.realpath": "^1.0.0",
            "inflight": "^1.0.4",
            "inherits": "2",
            "minimatch": "^3.0.4",
            "once": "^1.3.0",
            "path-is-absolute": "^1.0.0"
          }
        },
        "globals": {
          "version": "9.18.0",
          "bundled": true,
          "dev": true
        },
        "graceful-fs": {
          "version": "4.1.11",
          "bundled": true,
          "dev": true
        },
        "handlebars": {
          "version": "4.0.11",
          "bundled": true,
          "dev": true,
          "requires": {
            "async": "^1.4.0",
            "optimist": "^0.6.1",
            "source-map": "^0.4.4",
            "uglify-js": "^2.6"
          },
          "dependencies": {
            "source-map": {
              "version": "0.4.4",
              "bundled": true,
              "dev": true,
              "requires": {
                "amdefine": ">=0.0.4"
              }
            }
          }
        },
        "has-ansi": {
          "version": "2.0.0",
          "bundled": true,
          "dev": true,
          "requires": {
            "ansi-regex": "^2.0.0"
          }
        },
        "has-flag": {
          "version": "1.0.0",
          "bundled": true,
          "dev": true
        },
        "has-value": {
          "version": "1.0.0",
          "bundled": true,
          "dev": true,
          "requires": {
            "get-value": "^2.0.6",
            "has-values": "^1.0.0",
            "isobject": "^3.0.0"
          },
          "dependencies": {
            "isobject": {
              "version": "3.0.1",
              "bundled": true,
              "dev": true
            }
          }
        },
        "has-values": {
          "version": "1.0.0",
          "bundled": true,
          "dev": true,
          "requires": {
            "is-number": "^3.0.0",
            "kind-of": "^4.0.0"
          },
          "dependencies": {
            "is-number": {
              "version": "3.0.0",
              "bundled": true,
              "dev": true,
              "requires": {
                "kind-of": "^3.0.2"
              },
              "dependencies": {
                "kind-of": {
                  "version": "3.2.2",
                  "bundled": true,
                  "dev": true,
                  "requires": {
                    "is-buffer": "^1.1.5"
                  }
                }
              }
            },
            "kind-of": {
              "version": "4.0.0",
              "bundled": true,
              "dev": true,
              "requires": {
                "is-buffer": "^1.1.5"
              }
            }
          }
        },
        "hosted-git-info": {
          "version": "2.6.0",
          "bundled": true,
          "dev": true
        },
        "imurmurhash": {
          "version": "0.1.4",
          "bundled": true,
          "dev": true
        },
        "inflight": {
          "version": "1.0.6",
          "bundled": true,
          "dev": true,
          "requires": {
            "once": "^1.3.0",
            "wrappy": "1"
          }
        },
        "inherits": {
          "version": "2.0.3",
          "bundled": true,
          "dev": true
        },
        "invariant": {
          "version": "2.2.4",
          "bundled": true,
          "dev": true,
          "requires": {
            "loose-envify": "^1.0.0"
          }
        },
        "invert-kv": {
          "version": "1.0.0",
          "bundled": true,
          "dev": true
        },
        "is-accessor-descriptor": {
          "version": "0.1.6",
          "bundled": true,
          "dev": true,
          "requires": {
            "kind-of": "^3.0.2"
          }
        },
        "is-arrayish": {
          "version": "0.2.1",
          "bundled": true,
          "dev": true
        },
        "is-buffer": {
          "version": "1.1.6",
          "bundled": true,
          "dev": true
        },
        "is-builtin-module": {
          "version": "1.0.0",
          "bundled": true,
          "dev": true,
          "requires": {
            "builtin-modules": "^1.0.0"
          }
        },
        "is-data-descriptor": {
          "version": "0.1.4",
          "bundled": true,
          "dev": true,
          "requires": {
            "kind-of": "^3.0.2"
          }
        },
        "is-descriptor": {
          "version": "0.1.6",
          "bundled": true,
          "dev": true,
          "requires": {
            "is-accessor-descriptor": "^0.1.6",
            "is-data-descriptor": "^0.1.4",
            "kind-of": "^5.0.0"
          },
          "dependencies": {
            "kind-of": {
              "version": "5.1.0",
              "bundled": true,
              "dev": true
            }
          }
        },
        "is-extendable": {
          "version": "0.1.1",
          "bundled": true,
          "dev": true
        },
        "is-finite": {
          "version": "1.0.2",
          "bundled": true,
          "dev": true,
          "requires": {
            "number-is-nan": "^1.0.0"
          }
        },
        "is-fullwidth-code-point": {
          "version": "2.0.0",
          "bundled": true,
          "dev": true
        },
        "is-number": {
          "version": "3.0.0",
          "bundled": true,
          "dev": true,
          "requires": {
            "kind-of": "^3.0.2"
          }
        },
        "is-odd": {
          "version": "2.0.0",
          "bundled": true,
          "dev": true,
          "requires": {
            "is-number": "^4.0.0"
          },
          "dependencies": {
            "is-number": {
              "version": "4.0.0",
              "bundled": true,
              "dev": true
            }
          }
        },
        "is-plain-object": {
          "version": "2.0.4",
          "bundled": true,
          "dev": true,
          "requires": {
            "isobject": "^3.0.1"
          },
          "dependencies": {
            "isobject": {
              "version": "3.0.1",
              "bundled": true,
              "dev": true
            }
          }
        },
        "is-stream": {
          "version": "1.1.0",
          "bundled": true,
          "dev": true
        },
        "is-utf8": {
          "version": "0.2.1",
          "bundled": true,
          "dev": true
        },
        "is-windows": {
          "version": "1.0.2",
          "bundled": true,
          "dev": true
        },
        "isarray": {
          "version": "1.0.0",
          "bundled": true,
          "dev": true
        },
        "isexe": {
          "version": "2.0.0",
          "bundled": true,
          "dev": true
        },
        "isobject": {
          "version": "3.0.1",
          "bundled": true,
          "dev": true
        },
        "istanbul-lib-coverage": {
          "version": "1.2.0",
          "bundled": true,
          "dev": true
        },
        "istanbul-lib-hook": {
          "version": "1.1.0",
          "bundled": true,
          "dev": true,
          "requires": {
            "append-transform": "^0.4.0"
          }
        },
        "istanbul-lib-instrument": {
          "version": "1.10.1",
          "bundled": true,
          "dev": true,
          "requires": {
            "babel-generator": "^6.18.0",
            "babel-template": "^6.16.0",
            "babel-traverse": "^6.18.0",
            "babel-types": "^6.18.0",
            "babylon": "^6.18.0",
            "istanbul-lib-coverage": "^1.2.0",
            "semver": "^5.3.0"
          }
        },
        "istanbul-lib-report": {
          "version": "1.1.3",
          "bundled": true,
          "dev": true,
          "requires": {
            "istanbul-lib-coverage": "^1.1.2",
            "mkdirp": "^0.5.1",
            "path-parse": "^1.0.5",
            "supports-color": "^3.1.2"
          },
          "dependencies": {
            "supports-color": {
              "version": "3.2.3",
              "bundled": true,
              "dev": true,
              "requires": {
                "has-flag": "^1.0.0"
              }
            }
          }
        },
        "istanbul-lib-source-maps": {
          "version": "1.2.3",
          "bundled": true,
          "dev": true,
          "requires": {
            "debug": "^3.1.0",
            "istanbul-lib-coverage": "^1.1.2",
            "mkdirp": "^0.5.1",
            "rimraf": "^2.6.1",
            "source-map": "^0.5.3"
          },
          "dependencies": {
            "debug": {
              "version": "3.1.0",
              "bundled": true,
              "dev": true,
              "requires": {
                "ms": "2.0.0"
              }
            }
          }
        },
        "istanbul-reports": {
          "version": "1.4.0",
          "bundled": true,
          "dev": true,
          "requires": {
            "handlebars": "^4.0.3"
          }
        },
        "js-tokens": {
          "version": "3.0.2",
          "bundled": true,
          "dev": true
        },
        "jsesc": {
          "version": "1.3.0",
          "bundled": true,
          "dev": true
        },
        "kind-of": {
          "version": "3.2.2",
          "bundled": true,
          "dev": true,
          "requires": {
            "is-buffer": "^1.1.5"
          }
        },
        "lazy-cache": {
          "version": "1.0.4",
          "bundled": true,
          "dev": true,
          "optional": true
        },
        "lcid": {
          "version": "1.0.0",
          "bundled": true,
          "dev": true,
          "requires": {
            "invert-kv": "^1.0.0"
          }
        },
        "load-json-file": {
          "version": "1.1.0",
          "bundled": true,
          "dev": true,
          "requires": {
            "graceful-fs": "^4.1.2",
            "parse-json": "^2.2.0",
            "pify": "^2.0.0",
            "pinkie-promise": "^2.0.0",
            "strip-bom": "^2.0.0"
          }
        },
        "locate-path": {
          "version": "2.0.0",
          "bundled": true,
          "dev": true,
          "requires": {
            "p-locate": "^2.0.0",
            "path-exists": "^3.0.0"
          },
          "dependencies": {
            "path-exists": {
              "version": "3.0.0",
              "bundled": true,
              "dev": true
            }
          }
        },
        "lodash": {
          "version": "4.17.10",
          "bundled": true,
          "dev": true
        },
        "longest": {
          "version": "1.0.1",
          "bundled": true,
          "dev": true,
          "optional": true
        },
        "loose-envify": {
          "version": "1.3.1",
          "bundled": true,
          "dev": true,
          "requires": {
            "js-tokens": "^3.0.0"
          }
        },
        "lru-cache": {
          "version": "4.1.3",
          "bundled": true,
          "dev": true,
          "requires": {
            "pseudomap": "^1.0.2",
            "yallist": "^2.1.2"
          }
        },
        "map-cache": {
          "version": "0.2.2",
          "bundled": true,
          "dev": true
        },
        "map-visit": {
          "version": "1.0.0",
          "bundled": true,
          "dev": true,
          "requires": {
            "object-visit": "^1.0.0"
          }
        },
        "md5-hex": {
          "version": "1.3.0",
          "bundled": true,
          "dev": true,
          "requires": {
            "md5-o-matic": "^0.1.1"
          }
        },
        "md5-o-matic": {
          "version": "0.1.1",
          "bundled": true,
          "dev": true
        },
        "mem": {
          "version": "1.1.0",
          "bundled": true,
          "dev": true,
          "requires": {
            "mimic-fn": "^1.0.0"
          }
        },
        "merge-source-map": {
          "version": "1.1.0",
          "bundled": true,
          "dev": true,
          "requires": {
            "source-map": "^0.6.1"
          },
          "dependencies": {
            "source-map": {
              "version": "0.6.1",
              "bundled": true,
              "dev": true
            }
          }
        },
        "micromatch": {
          "version": "3.1.10",
          "bundled": true,
          "dev": true,
          "requires": {
            "arr-diff": "^4.0.0",
            "array-unique": "^0.3.2",
            "braces": "^2.3.1",
            "define-property": "^2.0.2",
            "extend-shallow": "^3.0.2",
            "extglob": "^2.0.4",
            "fragment-cache": "^0.2.1",
            "kind-of": "^6.0.2",
            "nanomatch": "^1.2.9",
            "object.pick": "^1.3.0",
            "regex-not": "^1.0.0",
            "snapdragon": "^0.8.1",
            "to-regex": "^3.0.2"
          },
          "dependencies": {
            "kind-of": {
              "version": "6.0.2",
              "bundled": true,
              "dev": true
            }
          }
        },
        "mimic-fn": {
          "version": "1.2.0",
          "bundled": true,
          "dev": true
        },
        "minimatch": {
          "version": "3.0.4",
          "bundled": true,
          "dev": true,
          "requires": {
            "brace-expansion": "^1.1.7"
          }
        },
        "minimist": {
          "version": "0.0.8",
          "bundled": true,
          "dev": true
        },
        "mixin-deep": {
          "version": "1.3.1",
          "bundled": true,
          "dev": true,
          "requires": {
            "for-in": "^1.0.2",
            "is-extendable": "^1.0.1"
          },
          "dependencies": {
            "is-extendable": {
              "version": "1.0.1",
              "bundled": true,
              "dev": true,
              "requires": {
                "is-plain-object": "^2.0.4"
              }
            }
          }
        },
        "mkdirp": {
          "version": "0.5.1",
          "bundled": true,
          "dev": true,
          "requires": {
            "minimist": "0.0.8"
          }
        },
        "ms": {
          "version": "2.0.0",
          "bundled": true,
          "dev": true
        },
        "nanomatch": {
          "version": "1.2.9",
          "bundled": true,
          "dev": true,
          "requires": {
            "arr-diff": "^4.0.0",
            "array-unique": "^0.3.2",
            "define-property": "^2.0.2",
            "extend-shallow": "^3.0.2",
            "fragment-cache": "^0.2.1",
            "is-odd": "^2.0.0",
            "is-windows": "^1.0.2",
            "kind-of": "^6.0.2",
            "object.pick": "^1.3.0",
            "regex-not": "^1.0.0",
            "snapdragon": "^0.8.1",
            "to-regex": "^3.0.1"
          },
          "dependencies": {
            "arr-diff": {
              "version": "4.0.0",
              "bundled": true,
              "dev": true
            },
            "array-unique": {
              "version": "0.3.2",
              "bundled": true,
              "dev": true
            },
            "kind-of": {
              "version": "6.0.2",
              "bundled": true,
              "dev": true
            }
          }
        },
        "normalize-package-data": {
          "version": "2.4.0",
          "bundled": true,
          "dev": true,
          "requires": {
            "hosted-git-info": "^2.1.4",
            "is-builtin-module": "^1.0.0",
            "semver": "2 || 3 || 4 || 5",
            "validate-npm-package-license": "^3.0.1"
          }
        },
        "npm-run-path": {
          "version": "2.0.2",
          "bundled": true,
          "dev": true,
          "requires": {
            "path-key": "^2.0.0"
          }
        },
        "number-is-nan": {
          "version": "1.0.1",
          "bundled": true,
          "dev": true
        },
        "object-assign": {
          "version": "4.1.1",
          "bundled": true,
          "dev": true
        },
        "object-copy": {
          "version": "0.1.0",
          "bundled": true,
          "dev": true,
          "requires": {
            "copy-descriptor": "^0.1.0",
            "define-property": "^0.2.5",
            "kind-of": "^3.0.3"
          },
          "dependencies": {
            "define-property": {
              "version": "0.2.5",
              "bundled": true,
              "dev": true,
              "requires": {
                "is-descriptor": "^0.1.0"
              }
            }
          }
        },
        "object-visit": {
          "version": "1.0.1",
          "bundled": true,
          "dev": true,
          "requires": {
            "isobject": "^3.0.0"
          },
          "dependencies": {
            "isobject": {
              "version": "3.0.1",
              "bundled": true,
              "dev": true
            }
          }
        },
        "object.pick": {
          "version": "1.3.0",
          "bundled": true,
          "dev": true,
          "requires": {
            "isobject": "^3.0.1"
          },
          "dependencies": {
            "isobject": {
              "version": "3.0.1",
              "bundled": true,
              "dev": true
            }
          }
        },
        "once": {
          "version": "1.4.0",
          "bundled": true,
          "dev": true,
          "requires": {
            "wrappy": "1"
          }
        },
        "optimist": {
          "version": "0.6.1",
          "bundled": true,
          "dev": true,
          "requires": {
            "minimist": "~0.0.1",
            "wordwrap": "~0.0.2"
          }
        },
        "os-homedir": {
          "version": "1.0.2",
          "bundled": true,
          "dev": true
        },
        "os-locale": {
          "version": "2.1.0",
          "bundled": true,
          "dev": true,
          "requires": {
            "execa": "^0.7.0",
            "lcid": "^1.0.0",
            "mem": "^1.1.0"
          }
        },
        "p-finally": {
          "version": "1.0.0",
          "bundled": true,
          "dev": true
        },
        "p-limit": {
          "version": "1.2.0",
          "bundled": true,
          "dev": true,
          "requires": {
            "p-try": "^1.0.0"
          }
        },
        "p-locate": {
          "version": "2.0.0",
          "bundled": true,
          "dev": true,
          "requires": {
            "p-limit": "^1.1.0"
          }
        },
        "p-try": {
          "version": "1.0.0",
          "bundled": true,
          "dev": true
        },
        "parse-json": {
          "version": "2.2.0",
          "bundled": true,
          "dev": true,
          "requires": {
            "error-ex": "^1.2.0"
          }
        },
        "pascalcase": {
          "version": "0.1.1",
          "bundled": true,
          "dev": true
        },
        "path-exists": {
          "version": "2.1.0",
          "bundled": true,
          "dev": true,
          "requires": {
            "pinkie-promise": "^2.0.0"
          }
        },
        "path-is-absolute": {
          "version": "1.0.1",
          "bundled": true,
          "dev": true
        },
        "path-key": {
          "version": "2.0.1",
          "bundled": true,
          "dev": true
        },
        "path-parse": {
          "version": "1.0.5",
          "bundled": true,
          "dev": true
        },
        "path-type": {
          "version": "1.1.0",
          "bundled": true,
          "dev": true,
          "requires": {
            "graceful-fs": "^4.1.2",
            "pify": "^2.0.0",
            "pinkie-promise": "^2.0.0"
          }
        },
        "pify": {
          "version": "2.3.0",
          "bundled": true,
          "dev": true
        },
        "pinkie": {
          "version": "2.0.4",
          "bundled": true,
          "dev": true
        },
        "pinkie-promise": {
          "version": "2.0.1",
          "bundled": true,
          "dev": true,
          "requires": {
            "pinkie": "^2.0.0"
          }
        },
        "pkg-dir": {
          "version": "1.0.0",
          "bundled": true,
          "dev": true,
          "requires": {
            "find-up": "^1.0.0"
          },
          "dependencies": {
            "find-up": {
              "version": "1.1.2",
              "bundled": true,
              "dev": true,
              "requires": {
                "path-exists": "^2.0.0",
                "pinkie-promise": "^2.0.0"
              }
            }
          }
        },
        "posix-character-classes": {
          "version": "0.1.1",
          "bundled": true,
          "dev": true
        },
        "pseudomap": {
          "version": "1.0.2",
          "bundled": true,
          "dev": true
        },
        "read-pkg": {
          "version": "1.1.0",
          "bundled": true,
          "dev": true,
          "requires": {
            "load-json-file": "^1.0.0",
            "normalize-package-data": "^2.3.2",
            "path-type": "^1.0.0"
          }
        },
        "read-pkg-up": {
          "version": "1.0.1",
          "bundled": true,
          "dev": true,
          "requires": {
            "find-up": "^1.0.0",
            "read-pkg": "^1.0.0"
          },
          "dependencies": {
            "find-up": {
              "version": "1.1.2",
              "bundled": true,
              "dev": true,
              "requires": {
                "path-exists": "^2.0.0",
                "pinkie-promise": "^2.0.0"
              }
            }
          }
        },
        "regenerator-runtime": {
          "version": "0.11.1",
          "bundled": true,
          "dev": true
        },
        "regex-not": {
          "version": "1.0.2",
          "bundled": true,
          "dev": true,
          "requires": {
            "extend-shallow": "^3.0.2",
            "safe-regex": "^1.1.0"
          }
        },
        "repeat-element": {
          "version": "1.1.2",
          "bundled": true,
          "dev": true
        },
        "repeat-string": {
          "version": "1.6.1",
          "bundled": true,
          "dev": true
        },
        "repeating": {
          "version": "2.0.1",
          "bundled": true,
          "dev": true,
          "requires": {
            "is-finite": "^1.0.0"
          }
        },
        "require-directory": {
          "version": "2.1.1",
          "bundled": true,
          "dev": true
        },
        "require-main-filename": {
          "version": "1.0.1",
          "bundled": true,
          "dev": true
        },
        "resolve-from": {
          "version": "2.0.0",
          "bundled": true,
          "dev": true
        },
        "resolve-url": {
          "version": "0.2.1",
          "bundled": true,
          "dev": true
        },
        "ret": {
          "version": "0.1.15",
          "bundled": true,
          "dev": true
        },
        "right-align": {
          "version": "0.1.3",
          "bundled": true,
          "dev": true,
          "optional": true,
          "requires": {
            "align-text": "^0.1.1"
          }
        },
        "rimraf": {
          "version": "2.6.2",
          "bundled": true,
          "dev": true,
          "requires": {
            "glob": "^7.0.5"
          }
        },
        "safe-regex": {
          "version": "1.1.0",
          "bundled": true,
          "dev": true,
          "requires": {
            "ret": "~0.1.10"
          }
        },
        "semver": {
          "version": "5.5.0",
          "bundled": true,
          "dev": true
        },
        "set-blocking": {
          "version": "2.0.0",
          "bundled": true,
          "dev": true
        },
        "set-value": {
          "version": "2.0.0",
          "bundled": true,
          "dev": true,
          "requires": {
            "extend-shallow": "^2.0.1",
            "is-extendable": "^0.1.1",
            "is-plain-object": "^2.0.3",
            "split-string": "^3.0.1"
          },
          "dependencies": {
            "extend-shallow": {
              "version": "2.0.1",
              "bundled": true,
              "dev": true,
              "requires": {
                "is-extendable": "^0.1.0"
              }
            }
          }
        },
        "shebang-command": {
          "version": "1.2.0",
          "bundled": true,
          "dev": true,
          "requires": {
            "shebang-regex": "^1.0.0"
          }
        },
        "shebang-regex": {
          "version": "1.0.0",
          "bundled": true,
          "dev": true
        },
        "signal-exit": {
          "version": "3.0.2",
          "bundled": true,
          "dev": true
        },
        "slide": {
          "version": "1.1.6",
          "bundled": true,
          "dev": true
        },
        "snapdragon": {
          "version": "0.8.2",
          "bundled": true,
          "dev": true,
          "requires": {
            "base": "^0.11.1",
            "debug": "^2.2.0",
            "define-property": "^0.2.5",
            "extend-shallow": "^2.0.1",
            "map-cache": "^0.2.2",
            "source-map": "^0.5.6",
            "source-map-resolve": "^0.5.0",
            "use": "^3.1.0"
          },
          "dependencies": {
            "define-property": {
              "version": "0.2.5",
              "bundled": true,
              "dev": true,
              "requires": {
                "is-descriptor": "^0.1.0"
              }
            },
            "extend-shallow": {
              "version": "2.0.1",
              "bundled": true,
              "dev": true,
              "requires": {
                "is-extendable": "^0.1.0"
              }
            }
          }
        },
        "snapdragon-node": {
          "version": "2.1.1",
          "bundled": true,
          "dev": true,
          "requires": {
            "define-property": "^1.0.0",
            "isobject": "^3.0.0",
            "snapdragon-util": "^3.0.1"
          },
          "dependencies": {
            "define-property": {
              "version": "1.0.0",
              "bundled": true,
              "dev": true,
              "requires": {
                "is-descriptor": "^1.0.0"
              }
            },
            "is-accessor-descriptor": {
              "version": "1.0.0",
              "bundled": true,
              "dev": true,
              "requires": {
                "kind-of": "^6.0.0"
              }
            },
            "is-data-descriptor": {
              "version": "1.0.0",
              "bundled": true,
              "dev": true,
              "requires": {
                "kind-of": "^6.0.0"
              }
            },
            "is-descriptor": {
              "version": "1.0.2",
              "bundled": true,
              "dev": true,
              "requires": {
                "is-accessor-descriptor": "^1.0.0",
                "is-data-descriptor": "^1.0.0",
                "kind-of": "^6.0.2"
              }
            },
            "isobject": {
              "version": "3.0.1",
              "bundled": true,
              "dev": true
            },
            "kind-of": {
              "version": "6.0.2",
              "bundled": true,
              "dev": true
            }
          }
        },
        "snapdragon-util": {
          "version": "3.0.1",
          "bundled": true,
          "dev": true,
          "requires": {
            "kind-of": "^3.2.0"
          }
        },
        "source-map": {
          "version": "0.5.7",
          "bundled": true,
          "dev": true
        },
        "source-map-resolve": {
          "version": "0.5.1",
          "bundled": true,
          "dev": true,
          "requires": {
            "atob": "^2.0.0",
            "decode-uri-component": "^0.2.0",
            "resolve-url": "^0.2.1",
            "source-map-url": "^0.4.0",
            "urix": "^0.1.0"
          }
        },
        "source-map-url": {
          "version": "0.4.0",
          "bundled": true,
          "dev": true
        },
        "spawn-wrap": {
          "version": "1.4.2",
          "bundled": true,
          "dev": true,
          "requires": {
            "foreground-child": "^1.5.6",
            "mkdirp": "^0.5.0",
            "os-homedir": "^1.0.1",
            "rimraf": "^2.6.2",
            "signal-exit": "^3.0.2",
            "which": "^1.3.0"
          }
        },
        "spdx-correct": {
          "version": "3.0.0",
          "bundled": true,
          "dev": true,
          "requires": {
            "spdx-expression-parse": "^3.0.0",
            "spdx-license-ids": "^3.0.0"
          }
        },
        "spdx-exceptions": {
          "version": "2.1.0",
          "bundled": true,
          "dev": true
        },
        "spdx-expression-parse": {
          "version": "3.0.0",
          "bundled": true,
          "dev": true,
          "requires": {
            "spdx-exceptions": "^2.1.0",
            "spdx-license-ids": "^3.0.0"
          }
        },
        "spdx-license-ids": {
          "version": "3.0.0",
          "bundled": true,
          "dev": true
        },
        "split-string": {
          "version": "3.1.0",
          "bundled": true,
          "dev": true,
          "requires": {
            "extend-shallow": "^3.0.0"
          }
        },
        "static-extend": {
          "version": "0.1.2",
          "bundled": true,
          "dev": true,
          "requires": {
            "define-property": "^0.2.5",
            "object-copy": "^0.1.0"
          },
          "dependencies": {
            "define-property": {
              "version": "0.2.5",
              "bundled": true,
              "dev": true,
              "requires": {
                "is-descriptor": "^0.1.0"
              }
            }
          }
        },
        "string-width": {
          "version": "2.1.1",
          "bundled": true,
          "dev": true,
          "requires": {
            "is-fullwidth-code-point": "^2.0.0",
            "strip-ansi": "^4.0.0"
          },
          "dependencies": {
            "ansi-regex": {
              "version": "3.0.0",
              "bundled": true,
              "dev": true
            },
            "strip-ansi": {
              "version": "4.0.0",
              "bundled": true,
              "dev": true,
              "requires": {
                "ansi-regex": "^3.0.0"
              }
            }
          }
        },
        "strip-ansi": {
          "version": "3.0.1",
          "bundled": true,
          "dev": true,
          "requires": {
            "ansi-regex": "^2.0.0"
          }
        },
        "strip-bom": {
          "version": "2.0.0",
          "bundled": true,
          "dev": true,
          "requires": {
            "is-utf8": "^0.2.0"
          }
        },
        "strip-eof": {
          "version": "1.0.0",
          "bundled": true,
          "dev": true
        },
        "supports-color": {
          "version": "2.0.0",
          "bundled": true,
          "dev": true
        },
        "test-exclude": {
          "version": "4.2.1",
          "bundled": true,
          "dev": true,
          "requires": {
            "arrify": "^1.0.1",
            "micromatch": "^3.1.8",
            "object-assign": "^4.1.0",
            "read-pkg-up": "^1.0.1",
            "require-main-filename": "^1.0.1"
          },
          "dependencies": {
            "arr-diff": {
              "version": "4.0.0",
              "bundled": true,
              "dev": true
            },
            "array-unique": {
              "version": "0.3.2",
              "bundled": true,
              "dev": true
            },
            "braces": {
              "version": "2.3.2",
              "bundled": true,
              "dev": true,
              "requires": {
                "arr-flatten": "^1.1.0",
                "array-unique": "^0.3.2",
                "extend-shallow": "^2.0.1",
                "fill-range": "^4.0.0",
                "isobject": "^3.0.1",
                "repeat-element": "^1.1.2",
                "snapdragon": "^0.8.1",
                "snapdragon-node": "^2.0.1",
                "split-string": "^3.0.2",
                "to-regex": "^3.0.1"
              },
              "dependencies": {
                "extend-shallow": {
                  "version": "2.0.1",
                  "bundled": true,
                  "dev": true,
                  "requires": {
                    "is-extendable": "^0.1.0"
                  }
                }
              }
            },
            "expand-brackets": {
              "version": "2.1.4",
              "bundled": true,
              "dev": true,
              "requires": {
                "debug": "^2.3.3",
                "define-property": "^0.2.5",
                "extend-shallow": "^2.0.1",
                "posix-character-classes": "^0.1.0",
                "regex-not": "^1.0.0",
                "snapdragon": "^0.8.1",
                "to-regex": "^3.0.1"
              },
              "dependencies": {
                "define-property": {
                  "version": "0.2.5",
                  "bundled": true,
                  "dev": true,
                  "requires": {
                    "is-descriptor": "^0.1.0"
                  }
                },
                "extend-shallow": {
                  "version": "2.0.1",
                  "bundled": true,
                  "dev": true,
                  "requires": {
                    "is-extendable": "^0.1.0"
                  }
                },
                "is-accessor-descriptor": {
                  "version": "0.1.6",
                  "bundled": true,
                  "dev": true,
                  "requires": {
                    "kind-of": "^3.0.2"
                  },
                  "dependencies": {
                    "kind-of": {
                      "version": "3.2.2",
                      "bundled": true,
                      "dev": true,
                      "requires": {
                        "is-buffer": "^1.1.5"
                      }
                    }
                  }
                },
                "is-data-descriptor": {
                  "version": "0.1.4",
                  "bundled": true,
                  "dev": true,
                  "requires": {
                    "kind-of": "^3.0.2"
                  },
                  "dependencies": {
                    "kind-of": {
                      "version": "3.2.2",
                      "bundled": true,
                      "dev": true,
                      "requires": {
                        "is-buffer": "^1.1.5"
                      }
                    }
                  }
                },
                "is-descriptor": {
                  "version": "0.1.6",
                  "bundled": true,
                  "dev": true,
                  "requires": {
                    "is-accessor-descriptor": "^0.1.6",
                    "is-data-descriptor": "^0.1.4",
                    "kind-of": "^5.0.0"
                  }
                },
                "kind-of": {
                  "version": "5.1.0",
                  "bundled": true,
                  "dev": true
                }
              }
            },
            "extglob": {
              "version": "2.0.4",
              "bundled": true,
              "dev": true,
              "requires": {
                "array-unique": "^0.3.2",
                "define-property": "^1.0.0",
                "expand-brackets": "^2.1.4",
                "extend-shallow": "^2.0.1",
                "fragment-cache": "^0.2.1",
                "regex-not": "^1.0.0",
                "snapdragon": "^0.8.1",
                "to-regex": "^3.0.1"
              },
              "dependencies": {
                "define-property": {
                  "version": "1.0.0",
                  "bundled": true,
                  "dev": true,
                  "requires": {
                    "is-descriptor": "^1.0.0"
                  }
                },
                "extend-shallow": {
                  "version": "2.0.1",
                  "bundled": true,
                  "dev": true,
                  "requires": {
                    "is-extendable": "^0.1.0"
                  }
                }
              }
            },
            "fill-range": {
              "version": "4.0.0",
              "bundled": true,
              "dev": true,
              "requires": {
                "extend-shallow": "^2.0.1",
                "is-number": "^3.0.0",
                "repeat-string": "^1.6.1",
                "to-regex-range": "^2.1.0"
              },
              "dependencies": {
                "extend-shallow": {
                  "version": "2.0.1",
                  "bundled": true,
                  "dev": true,
                  "requires": {
                    "is-extendable": "^0.1.0"
                  }
                }
              }
            },
            "is-accessor-descriptor": {
              "version": "1.0.0",
              "bundled": true,
              "dev": true,
              "requires": {
                "kind-of": "^6.0.0"
              }
            },
            "is-data-descriptor": {
              "version": "1.0.0",
              "bundled": true,
              "dev": true,
              "requires": {
                "kind-of": "^6.0.0"
              }
            },
            "is-descriptor": {
              "version": "1.0.2",
              "bundled": true,
              "dev": true,
              "requires": {
                "is-accessor-descriptor": "^1.0.0",
                "is-data-descriptor": "^1.0.0",
                "kind-of": "^6.0.2"
              }
            },
            "is-number": {
              "version": "3.0.0",
              "bundled": true,
              "dev": true,
              "requires": {
                "kind-of": "^3.0.2"
              },
              "dependencies": {
                "kind-of": {
                  "version": "3.2.2",
                  "bundled": true,
                  "dev": true,
                  "requires": {
                    "is-buffer": "^1.1.5"
                  }
                }
              }
            },
            "isobject": {
              "version": "3.0.1",
              "bundled": true,
              "dev": true
            },
            "kind-of": {
              "version": "6.0.2",
              "bundled": true,
              "dev": true
            },
            "micromatch": {
              "version": "3.1.10",
              "bundled": true,
              "dev": true,
              "requires": {
                "arr-diff": "^4.0.0",
                "array-unique": "^0.3.2",
                "braces": "^2.3.1",
                "define-property": "^2.0.2",
                "extend-shallow": "^3.0.2",
                "extglob": "^2.0.4",
                "fragment-cache": "^0.2.1",
                "kind-of": "^6.0.2",
                "nanomatch": "^1.2.9",
                "object.pick": "^1.3.0",
                "regex-not": "^1.0.0",
                "snapdragon": "^0.8.1",
                "to-regex": "^3.0.2"
              }
            }
          }
        },
        "to-fast-properties": {
          "version": "1.0.3",
          "bundled": true,
          "dev": true
        },
        "to-object-path": {
          "version": "0.3.0",
          "bundled": true,
          "dev": true,
          "requires": {
            "kind-of": "^3.0.2"
          }
        },
        "to-regex": {
          "version": "3.0.2",
          "bundled": true,
          "dev": true,
          "requires": {
            "define-property": "^2.0.2",
            "extend-shallow": "^3.0.2",
            "regex-not": "^1.0.2",
            "safe-regex": "^1.1.0"
          }
        },
        "to-regex-range": {
          "version": "2.1.1",
          "bundled": true,
          "dev": true,
          "requires": {
            "is-number": "^3.0.0",
            "repeat-string": "^1.6.1"
          },
          "dependencies": {
            "is-number": {
              "version": "3.0.0",
              "bundled": true,
              "dev": true,
              "requires": {
                "kind-of": "^3.0.2"
              }
            }
          }
        },
        "trim-right": {
          "version": "1.0.1",
          "bundled": true,
          "dev": true
        },
        "uglify-js": {
          "version": "2.8.29",
          "bundled": true,
          "dev": true,
          "optional": true,
          "requires": {
            "source-map": "~0.5.1",
            "uglify-to-browserify": "~1.0.0",
            "yargs": "~3.10.0"
          },
          "dependencies": {
            "yargs": {
              "version": "3.10.0",
              "bundled": true,
              "dev": true,
              "optional": true,
              "requires": {
                "camelcase": "^1.0.2",
                "cliui": "^2.1.0",
                "decamelize": "^1.0.0",
                "window-size": "0.1.0"
              }
            }
          }
        },
        "uglify-to-browserify": {
          "version": "1.0.2",
          "bundled": true,
          "dev": true,
          "optional": true
        },
        "union-value": {
          "version": "1.0.0",
          "bundled": true,
          "dev": true,
          "requires": {
            "arr-union": "^3.1.0",
            "get-value": "^2.0.6",
            "is-extendable": "^0.1.1",
            "set-value": "^0.4.3"
          },
          "dependencies": {
            "extend-shallow": {
              "version": "2.0.1",
              "bundled": true,
              "dev": true,
              "requires": {
                "is-extendable": "^0.1.0"
              }
            },
            "set-value": {
              "version": "0.4.3",
              "bundled": true,
              "dev": true,
              "requires": {
                "extend-shallow": "^2.0.1",
                "is-extendable": "^0.1.1",
                "is-plain-object": "^2.0.1",
                "to-object-path": "^0.3.0"
              }
            }
          }
        },
        "unset-value": {
          "version": "1.0.0",
          "bundled": true,
          "dev": true,
          "requires": {
            "has-value": "^0.3.1",
            "isobject": "^3.0.0"
          },
          "dependencies": {
            "has-value": {
              "version": "0.3.1",
              "bundled": true,
              "dev": true,
              "requires": {
                "get-value": "^2.0.3",
                "has-values": "^0.1.4",
                "isobject": "^2.0.0"
              },
              "dependencies": {
                "isobject": {
                  "version": "2.1.0",
                  "bundled": true,
                  "dev": true,
                  "requires": {
                    "isarray": "1.0.0"
                  }
                }
              }
            },
            "has-values": {
              "version": "0.1.4",
              "bundled": true,
              "dev": true
            },
            "isobject": {
              "version": "3.0.1",
              "bundled": true,
              "dev": true
            }
          }
        },
        "urix": {
          "version": "0.1.0",
          "bundled": true,
          "dev": true
        },
        "use": {
          "version": "3.1.0",
          "bundled": true,
          "dev": true,
          "requires": {
            "kind-of": "^6.0.2"
          },
          "dependencies": {
            "kind-of": {
              "version": "6.0.2",
              "bundled": true,
              "dev": true
            }
          }
        },
        "validate-npm-package-license": {
          "version": "3.0.3",
          "bundled": true,
          "dev": true,
          "requires": {
            "spdx-correct": "^3.0.0",
            "spdx-expression-parse": "^3.0.0"
          }
        },
        "which": {
          "version": "1.3.0",
          "bundled": true,
          "dev": true,
          "requires": {
            "isexe": "^2.0.0"
          }
        },
        "which-module": {
          "version": "2.0.0",
          "bundled": true,
          "dev": true
        },
        "window-size": {
          "version": "0.1.0",
          "bundled": true,
          "dev": true,
          "optional": true
        },
        "wordwrap": {
          "version": "0.0.3",
          "bundled": true,
          "dev": true
        },
        "wrap-ansi": {
          "version": "2.1.0",
          "bundled": true,
          "dev": true,
          "requires": {
            "string-width": "^1.0.1",
            "strip-ansi": "^3.0.1"
          },
          "dependencies": {
            "is-fullwidth-code-point": {
              "version": "1.0.0",
              "bundled": true,
              "dev": true,
              "requires": {
                "number-is-nan": "^1.0.0"
              }
            },
            "string-width": {
              "version": "1.0.2",
              "bundled": true,
              "dev": true,
              "requires": {
                "code-point-at": "^1.0.0",
                "is-fullwidth-code-point": "^1.0.0",
                "strip-ansi": "^3.0.0"
              }
            }
          }
        },
        "wrappy": {
          "version": "1.0.2",
          "bundled": true,
          "dev": true
        },
        "write-file-atomic": {
          "version": "1.3.4",
          "bundled": true,
          "dev": true,
          "requires": {
            "graceful-fs": "^4.1.11",
            "imurmurhash": "^0.1.4",
            "slide": "^1.1.5"
          }
        },
        "y18n": {
          "version": "3.2.1",
          "bundled": true,
          "dev": true
        },
        "yallist": {
          "version": "2.1.2",
          "bundled": true,
          "dev": true
        },
        "yargs": {
          "version": "11.1.0",
          "bundled": true,
          "dev": true,
          "requires": {
            "cliui": "^4.0.0",
            "decamelize": "^1.1.1",
            "find-up": "^2.1.0",
            "get-caller-file": "^1.0.1",
            "os-locale": "^2.0.0",
            "require-directory": "^2.1.1",
            "require-main-filename": "^1.0.1",
            "set-blocking": "^2.0.0",
            "string-width": "^2.0.0",
            "which-module": "^2.0.0",
            "y18n": "^3.2.1",
            "yargs-parser": "^9.0.2"
          },
          "dependencies": {
            "ansi-regex": {
              "version": "3.0.0",
              "bundled": true,
              "dev": true
            },
            "camelcase": {
              "version": "4.1.0",
              "bundled": true,
              "dev": true
            },
            "cliui": {
              "version": "4.1.0",
              "bundled": true,
              "dev": true,
              "requires": {
                "string-width": "^2.1.1",
                "strip-ansi": "^4.0.0",
                "wrap-ansi": "^2.0.0"
              }
            },
            "strip-ansi": {
              "version": "4.0.0",
              "bundled": true,
              "dev": true,
              "requires": {
                "ansi-regex": "^3.0.0"
              }
            },
            "yargs-parser": {
              "version": "9.0.2",
              "bundled": true,
              "dev": true,
              "requires": {
                "camelcase": "^4.1.0"
              }
            }
          }
        },
        "yargs-parser": {
          "version": "8.1.0",
          "bundled": true,
          "dev": true,
          "requires": {
            "camelcase": "^4.1.0"
          },
          "dependencies": {
            "camelcase": {
              "version": "4.1.0",
              "bundled": true,
              "dev": true
            }
          }
        }
      }
    },
    "oauth-sign": {
      "version": "0.9.0",
      "resolved": "https://registry.npmjs.org/oauth-sign/-/oauth-sign-0.9.0.tgz",
      "integrity": "sha512-fexhUFFPTGV8ybAtSIGbV6gOkSv8UtRbDBnAyLQw4QPKkgNlsH2ByPGtMUqdWkos6YCRmAqViwgZrJc/mRDzZQ==",
      "dev": true
    },
    "optionator": {
      "version": "0.8.3",
      "resolved": "https://registry.npmjs.org/optionator/-/optionator-0.8.3.tgz",
      "integrity": "sha512-+IW9pACdk3XWmmTXG8m3upGUJst5XRGzxMRjXzAuJ1XnIFNvfhjjIuYkDvysnPQ7qzqVzLt78BCruntqRhWQbA==",
      "dev": true,
      "requires": {
        "deep-is": "~0.1.3",
        "fast-levenshtein": "~2.0.6",
        "levn": "~0.3.0",
        "prelude-ls": "~1.1.2",
        "type-check": "~0.3.2",
        "word-wrap": "~1.2.3"
      }
    },
    "parse5": {
      "version": "4.0.0",
      "resolved": "https://registry.npmjs.org/parse5/-/parse5-4.0.0.tgz",
      "integrity": "sha512-VrZ7eOd3T1Fk4XWNXMgiGBK/z0MG48BWG2uQNU4I72fkQuKUTZpl+u9k+CxEG0twMVzSmXEEz12z5Fnw1jIQFA==",
      "dev": true
    },
    "performance-now": {
      "version": "2.1.0",
      "resolved": "https://registry.npmjs.org/performance-now/-/performance-now-2.1.0.tgz",
      "integrity": "sha1-Ywn04OX6kT7BxpMHrjZLSzd8nns=",
      "dev": true
    },
    "pn": {
      "version": "1.1.0",
      "resolved": "https://registry.npmjs.org/pn/-/pn-1.1.0.tgz",
      "integrity": "sha512-2qHaIQr2VLRFoxe2nASzsV6ef4yOOH+Fi9FBOVH6cqeSgUnoyySPZkxzLuzd+RYOQTRpROA0ztTMqxROKSb/nA==",
      "dev": true
    },
    "prelude-ls": {
      "version": "1.1.2",
      "resolved": "https://registry.npmjs.org/prelude-ls/-/prelude-ls-1.1.2.tgz",
      "integrity": "sha1-IZMqVJ9eUv/ZqCf1cOBL5iqX2lQ=",
      "dev": true
    },
    "psl": {
      "version": "1.5.0",
      "resolved": "https://registry.npmjs.org/psl/-/psl-1.5.0.tgz",
      "integrity": "sha512-4vqUjKi2huMu1OJiLhi3jN6jeeKvMZdI1tYgi/njW5zV52jNLgSAZSdN16m9bJFe61/cT8ulmw4qFitV9QRsEA==",
      "dev": true
    },
    "punycode": {
      "version": "2.1.1",
      "resolved": "https://registry.npmjs.org/punycode/-/punycode-2.1.1.tgz",
      "integrity": "sha512-XRsRjdf+j5ml+y/6GKHPZbrF/8p2Yga0JPtdqTIY2Xe5ohJPD9saDJJLPvp9+NSBprVvevdXZybnj2cv8OEd0A==",
      "dev": true
    },
    "request": {
      "version": "2.88.0",
      "resolved": "https://registry.npmjs.org/request/-/request-2.88.0.tgz",
      "integrity": "sha512-NAqBSrijGLZdM0WZNsInLJpkJokL72XYjUpnB0iwsRgxh7dB6COrHnTBNwN0E+lHDAJzu7kLAkDeY08z2/A0hg==",
      "dev": true,
      "requires": {
        "aws-sign2": "~0.7.0",
        "aws4": "^1.8.0",
        "caseless": "~0.12.0",
        "combined-stream": "~1.0.6",
        "extend": "~3.0.2",
        "forever-agent": "~0.6.1",
        "form-data": "~2.3.2",
        "har-validator": "~5.1.0",
        "http-signature": "~1.2.0",
        "is-typedarray": "~1.0.0",
        "isstream": "~0.1.2",
        "json-stringify-safe": "~5.0.1",
        "mime-types": "~2.1.19",
        "oauth-sign": "~0.9.0",
        "performance-now": "^2.1.0",
        "qs": "~6.5.2",
        "safe-buffer": "^5.1.2",
        "tough-cookie": "~2.4.3",
        "tunnel-agent": "^0.6.0",
        "uuid": "^3.3.2"
      },
      "dependencies": {
        "qs": {
          "version": "6.5.2",
          "resolved": "https://registry.npmjs.org/qs/-/qs-6.5.2.tgz",
          "integrity": "sha512-N5ZAX4/LxJmF+7wN74pUD6qAh9/wnvdQcjq9TZjevvXzSUo7bfmw91saqMjzGS2xq91/odN2dW/WOl7qQHNDGA==",
          "dev": true
        }
      }
    },
    "request-promise-core": {
      "version": "1.1.3",
      "resolved": "https://registry.npmjs.org/request-promise-core/-/request-promise-core-1.1.3.tgz",
      "integrity": "sha512-QIs2+ArIGQVp5ZYbWD5ZLCY29D5CfWizP8eWnm8FoGD1TX61veauETVQbrV60662V0oFBkrDOuaBI8XgtuyYAQ==",
      "dev": true,
      "requires": {
        "lodash": "^4.17.15"
      }
    },
    "request-promise-native": {
      "version": "1.0.8",
      "resolved": "https://registry.npmjs.org/request-promise-native/-/request-promise-native-1.0.8.tgz",
      "integrity": "sha512-dapwLGqkHtwL5AEbfenuzjTYg35Jd6KPytsC2/TLkVMz8rm+tNt72MGUWT1RP/aYawMpN6HqbNGBQaRcBtjQMQ==",
      "dev": true,
      "requires": {
        "request-promise-core": "1.1.3",
        "stealthy-require": "^1.1.1",
        "tough-cookie": "^2.3.3"
      }
    },
    "safe-buffer": {
      "version": "5.1.2",
      "resolved": "https://registry.npmjs.org/safe-buffer/-/safe-buffer-5.1.2.tgz",
      "integrity": "sha512-Gd2UZBJDkXlY7GbJxfsE8/nvKkUEU1G38c1siN6QP6a9PT9MmHB8GnpscSmMJSoF8LOIrt8ud/wPtojys4G6+g==",
      "dev": true
    },
    "safer-buffer": {
      "version": "2.1.2",
      "resolved": "https://registry.npmjs.org/safer-buffer/-/safer-buffer-2.1.2.tgz",
      "integrity": "sha512-YZo3K82SD7Riyi0E1EQPojLz7kpepnSQI9IyPbHHg1XXXevb5dJI7tpyN2ADxGcQbHG7vcyRHk0cbwqcQriUtg==",
      "dev": true
    },
    "sax": {
      "version": "1.2.4",
      "resolved": "https://registry.npmjs.org/sax/-/sax-1.2.4.tgz",
      "integrity": "sha512-NqVDv9TpANUjFm0N8uM5GxL36UgKi9/atZw+x7YFnQ8ckwFGKrl4xX4yWtrey3UJm5nP1kUbnYgLopqWNSRhWw==",
      "dev": true
    },
    "sshpk": {
      "version": "1.16.1",
      "resolved": "https://registry.npmjs.org/sshpk/-/sshpk-1.16.1.tgz",
      "integrity": "sha512-HXXqVUq7+pcKeLqqZj6mHFUMvXtOJt1uoUx09pFW6011inTMxqI8BA8PM95myrIyyKwdnzjdFjLiE6KBPVtJIg==",
      "dev": true,
      "requires": {
        "asn1": "~0.2.3",
        "assert-plus": "^1.0.0",
        "bcrypt-pbkdf": "^1.0.0",
        "dashdash": "^1.12.0",
        "ecc-jsbn": "~0.1.1",
        "getpass": "^0.1.1",
        "jsbn": "~0.1.0",
        "safer-buffer": "^2.0.2",
        "tweetnacl": "~0.14.0"
      }
    },
    "stealthy-require": {
      "version": "1.1.1",
      "resolved": "https://registry.npmjs.org/stealthy-require/-/stealthy-require-1.1.1.tgz",
      "integrity": "sha1-NbCYdbT/SfJqd35QmzCQoyJr8ks=",
      "dev": true
    },
    "symbol-tree": {
      "version": "3.2.4",
      "resolved": "https://registry.npmjs.org/symbol-tree/-/symbol-tree-3.2.4.tgz",
      "integrity": "sha512-9QNk5KwDF+Bvz+PyObkmSYjI5ksVUYtjW7AU22r2NKcfLJcXp96hkDWU3+XndOsUb+AQ9QhfzfCT2O+CNWT5Tw==",
      "dev": true
    },
    "tough-cookie": {
      "version": "2.4.3",
      "resolved": "https://registry.npmjs.org/tough-cookie/-/tough-cookie-2.4.3.tgz",
      "integrity": "sha512-Q5srk/4vDM54WJsJio3XNn6K2sCG+CQ8G5Wz6bZhRZoAe/+TxjWB/GlFAnYEbkYVlON9FMk/fE3h2RLpPXo4lQ==",
      "dev": true,
      "requires": {
        "psl": "^1.1.24",
        "punycode": "^1.4.1"
      },
      "dependencies": {
        "punycode": {
          "version": "1.4.1",
          "resolved": "https://registry.npmjs.org/punycode/-/punycode-1.4.1.tgz",
          "integrity": "sha1-wNWmOycYgArY4esPpSachN1BhF4=",
          "dev": true
        }
      }
    },
    "tr46": {
      "version": "1.0.1",
      "resolved": "https://registry.npmjs.org/tr46/-/tr46-1.0.1.tgz",
      "integrity": "sha1-qLE/1r/SSJUZZ0zN5VujaTtwbQk=",
      "dev": true,
      "requires": {
        "punycode": "^2.1.0"
      }
    },
    "tunnel-agent": {
      "version": "0.6.0",
      "resolved": "https://registry.npmjs.org/tunnel-agent/-/tunnel-agent-0.6.0.tgz",
      "integrity": "sha1-J6XeoGs2sEoKmWZ3SykIaPD8QP0=",
      "dev": true,
      "requires": {
        "safe-buffer": "^5.0.1"
      }
    },
    "tweetnacl": {
      "version": "0.14.5",
      "resolved": "https://registry.npmjs.org/tweetnacl/-/tweetnacl-0.14.5.tgz",
      "integrity": "sha1-WuaBd/GS1EViadEIr6k/+HQ/T2Q=",
      "dev": true
    },
    "type-check": {
      "version": "0.3.2",
      "resolved": "https://registry.npmjs.org/type-check/-/type-check-0.3.2.tgz",
      "integrity": "sha1-WITKtRLPHTVeP7eE8wgEsrUg23I=",
      "dev": true,
      "requires": {
        "prelude-ls": "~1.1.2"
      }
    },
    "uri-js": {
      "version": "4.2.2",
      "resolved": "https://registry.npmjs.org/uri-js/-/uri-js-4.2.2.tgz",
      "integrity": "sha512-KY9Frmirql91X2Qgjry0Wd4Y+YTdrdZheS8TFwvkbLWf/G5KNJDCh6pKL5OZctEW4+0Baa5idK2ZQuELRwPznQ==",
      "dev": true,
      "requires": {
        "punycode": "^2.1.0"
      }
    },
    "uuid": {
      "version": "3.3.3",
      "resolved": "https://registry.npmjs.org/uuid/-/uuid-3.3.3.tgz",
      "integrity": "sha512-pW0No1RGHgzlpHJO1nsVrHKpOEIxkGg1xB+v0ZmdNH5OAeAwzAVrCnI2/6Mtx+Uys6iaylxa+D3g4j63IKKjSQ==",
      "dev": true
    },
    "verror": {
      "version": "1.10.0",
      "resolved": "https://registry.npmjs.org/verror/-/verror-1.10.0.tgz",
      "integrity": "sha1-OhBcoXBTr1XW4nDB+CiGguGNpAA=",
      "dev": true,
      "requires": {
        "assert-plus": "^1.0.0",
        "core-util-is": "1.0.2",
        "extsprintf": "^1.2.0"
      }
    },
    "w3c-hr-time": {
      "version": "1.0.1",
      "resolved": "https://registry.npmjs.org/w3c-hr-time/-/w3c-hr-time-1.0.1.tgz",
      "integrity": "sha1-gqwr/2PZUOqeMYmlimViX+3xkEU=",
      "dev": true,
      "requires": {
        "browser-process-hrtime": "^0.1.2"
      }
    },
    "webidl-conversions": {
      "version": "4.0.2",
      "resolved": "https://registry.npmjs.org/webidl-conversions/-/webidl-conversions-4.0.2.tgz",
      "integrity": "sha512-YQ+BmxuTgd6UXZW3+ICGfyqRyHXVlD5GtQr5+qjiNW7bF0cqrzX500HVXPBOvgXb5YnzDd+h0zqyv61KUD7+Sg==",
      "dev": true
    },
    "whatwg-encoding": {
      "version": "1.0.5",
      "resolved": "https://registry.npmjs.org/whatwg-encoding/-/whatwg-encoding-1.0.5.tgz",
      "integrity": "sha512-b5lim54JOPN9HtzvK9HFXvBma/rnfFeqsic0hSpjtDbVxR3dJKLc+KB4V6GgiGOvl7CY/KNh8rxSo9DKQrnUEw==",
      "dev": true,
      "requires": {
        "iconv-lite": "0.4.24"
      }
    },
    "whatwg-mimetype": {
      "version": "2.3.0",
      "resolved": "https://registry.npmjs.org/whatwg-mimetype/-/whatwg-mimetype-2.3.0.tgz",
      "integrity": "sha512-M4yMwr6mAnQz76TbJm914+gPpB/nCwvZbJU28cUD6dR004SAxDLOOSUaB1JDRqLtaOV/vi0IC5lEAGFgrjGv/g==",
      "dev": true
    },
    "whatwg-url": {
      "version": "6.5.0",
      "resolved": "https://registry.npmjs.org/whatwg-url/-/whatwg-url-6.5.0.tgz",
      "integrity": "sha512-rhRZRqx/TLJQWUpQ6bmrt2UV4f0HCQ463yQuONJqC6fO2VoEb1pTYddbe59SkYq87aoM5A3bdhMZiUiVws+fzQ==",
      "dev": true,
      "requires": {
        "lodash.sortby": "^4.7.0",
        "tr46": "^1.0.1",
        "webidl-conversions": "^4.0.2"
      }
    },
    "word-wrap": {
      "version": "1.2.3",
      "resolved": "https://registry.npmjs.org/word-wrap/-/word-wrap-1.2.3.tgz",
      "integrity": "sha512-Hz/mrNwitNRh/HUAtM/VT/5VH+ygD6DV7mYKZAtHOrbs8U7lvPS6xf7EJKMF0uW1KJCl0H701g3ZGus+muE5vQ==",
      "dev": true
    },
    "xml-name-validator": {
      "version": "3.0.0",
      "resolved": "https://registry.npmjs.org/xml-name-validator/-/xml-name-validator-3.0.0.tgz",
      "integrity": "sha512-A5CUptxDsvxKJEU3yO6DuWBSJz/qizqzJKOMIfUJHETbBw/sFaDxgd6fxm1ewUaM0jZ444Fc5vC5ROYurg/4Pw==",
      "dev": true
    }
  }
}
