{
  "bomFormat": "CycloneDX",
  "specVersion": "1.4",
  "serialNumber": "urn:uuid:65e25a46-12a2-461d-bd66-3c74e695912b",
  "version": 1,
  "metadata": {
    "timestamp": "2022-02-23T07:59:08Z",
    "tools": [
      {
        "vendor": "GitLab",
        "name": "Gemnasium",
        "version": "2.34.0"
      }
    ],
    "authors": [
      {
        "name": "GitLab",
        "email": "support@gitlab.com"
      }
    ],
    "properties": [
      {
        "name": "gitlab:input_file",
        "value": "src/web.api/packages.lock.json"
      },
      {
        "name": "gitlab:package_manager",
        "value": "nuget"
      }
    ]
  },
  "components": [
    {
      "name": "Antlr3.Runtime",
      "version": "3.5.1",
      "purl": "pkg:nuget/Antlr3.Runtime@3.5.1",
      "type": "library",
      "bom-ref": "pkg:nuget/Antlr3.Runtime@3.5.1"
    },
    {
      "name": "Iesi.Collections",
      "version": "4.0.4",
      "purl": "pkg:nuget/Iesi.Collections@4.0.4",
      "type": "library",
      "bom-ref": "pkg:nuget/Iesi.Collections@4.0.4"
    },
    {
      "name": "Microsoft.ChakraCore",
      "version": "1.11.18",
      "purl": "pkg:nuget/Microsoft.ChakraCore@1.11.18",
      "type": "library",
      "bom-ref": "pkg:nuget/Microsoft.ChakraCore@1.11.18"
    },
    {
      "name": "Microsoft.NETCore.Platforms",
      "version": "1.1.0",
      "purl": "pkg:nuget/Microsoft.NETCore.Platforms@1.1.0",
      "type": "library",
      "bom-ref": "pkg:nuget/Microsoft.NETCore.Platforms@1.1.0"
    },
    {
      "name": "Microsoft.NETCore.Targets",
      "version": "1.1.0",
      "purl": "pkg:nuget/Microsoft.NETCore.Targets@1.1.0",
      "type": "library",
      "bom-ref": "pkg:nuget/Microsoft.NETCore.Targets@1.1.0"
    },
    {
      "name": "Microsoft.Win32.Primitives",
      "version": "4.3.0",
      "purl": "pkg:nuget/Microsoft.Win32.Primitives@4.3.0",
      "type": "library",
      "bom-ref": "pkg:nuget/Microsoft.Win32.Primitives@4.3.0"
    },
    {
      "name": "MvcMailer",
      "version": "4.5.0",
      "purl": "pkg:nuget/MvcMailer@4.5.0",
      "type": "library",
      "bom-ref": "pkg:nuget/MvcMailer@4.5.0"
    },
    {
      "name": "NETStandard.Library",
      "version": "1.6.1",
      "purl": "pkg:nuget/NETStandard.Library@1.6.1",
      "type": "library",
      "bom-ref": "pkg:nuget/NETStandard.Library@1.6.1"
    },
    {
      "name": "NHibernate",
      "version": "5.2.6",
      "purl": "pkg:nuget/NHibernate@5.2.6",
      "type": "library",
      "bom-ref": "pkg:nuget/NHibernate@5.2.6"
    },
    {
      "name": "NodaTime",
      "version": "2.4.7",
      "purl": "pkg:nuget/NodaTime@2.4.7",
      "type": "library",
      "bom-ref": "pkg:nuget/NodaTime@2.4.7"
    },
    {
      "name": "Remotion.Linq",
      "version": "2.2.0",
      "purl": "pkg:nuget/Remotion.Linq@2.2.0",
      "type": "library",
      "bom-ref": "pkg:nuget/Remotion.Linq@2.2.0"
    },
    {
      "name": "Remotion.Linq.EagerFetching",
      "version": "2.2.0",
      "purl": "pkg:nuget/Remotion.Linq.EagerFetching@2.2.0",
      "type": "library",
      "bom-ref": "pkg:nuget/Remotion.Linq.EagerFetching@2.2.0"
    },
    {
      "name": "System.AppContext",
      "version": "4.3.0",
      "purl": "pkg:nuget/System.AppContext@4.3.0",
      "type": "library",
      "bom-ref": "pkg:nuget/System.AppContext@4.3.0"
    },
    {
      "name": "System.Buffers",
      "version": "4.3.0",
      "purl": "pkg:nuget/System.Buffers@4.3.0",
      "type": "library",
      "bom-ref": "pkg:nuget/System.Buffers@4.3.0"
    },
    {
      "name": "System.Collections",
      "version": "4.3.0",
      "purl": "pkg:nuget/System.Collections@4.3.0",
      "type": "library",
      "bom-ref": "pkg:nuget/System.Collections@4.3.0"
    },
    {
      "name": "System.Collections.Concurrent",
      "version": "4.3.0",
      "purl": "pkg:nuget/System.Collections.Concurrent@4.3.0",
      "type": "library",
      "bom-ref": "pkg:nuget/System.Collections.Concurrent@4.3.0"
    },
    {
      "name": "System.Configuration.ConfigurationManager",
      "version": "4.4.1",
      "purl": "pkg:nuget/System.Configuration.ConfigurationManager@4.4.1",
      "type": "library",
      "bom-ref": "pkg:nuget/System.Configuration.ConfigurationManager@4.4.1"
    },
    {
      "name": "System.Console",
      "version": "4.3.0",
      "purl": "pkg:nuget/System.Console@4.3.0",
      "type": "library",
      "bom-ref": "pkg:nuget/System.Console@4.3.0"
    },
    {
      "name": "System.Diagnostics.Debug",
      "version": "4.3.0",
      "purl": "pkg:nuget/System.Diagnostics.Debug@4.3.0",
      "type": "library",
      "bom-ref": "pkg:nuget/System.Diagnostics.Debug@4.3.0"
    },
    {
      "name": "System.Diagnostics.DiagnosticSource",
      "version": "4.3.0",
      "purl": "pkg:nuget/System.Diagnostics.DiagnosticSource@4.3.0",
      "type": "library",
      "bom-ref": "pkg:nuget/System.Diagnostics.DiagnosticSource@4.3.0"
    },
    {
      "name": "System.Diagnostics.Tools",
      "version": "4.3.0",
      "purl": "pkg:nuget/System.Diagnostics.Tools@4.3.0",
      "type": "library",
      "bom-ref": "pkg:nuget/System.Diagnostics.Tools@4.3.0"
    },
    {
      "name": "System.Diagnostics.Tracing",
      "version": "4.3.0",
      "purl": "pkg:nuget/System.Diagnostics.Tracing@4.3.0",
      "type": "library",
      "bom-ref": "pkg:nuget/System.Diagnostics.Tracing@4.3.0"
    },
    {
      "name": "System.Globalization",
      "version": "4.3.0",
      "purl": "pkg:nuget/System.Globalization@4.3.0",
      "type": "library",
      "bom-ref": "pkg:nuget/System.Globalization@4.3.0"
    },
    {
      "name": "System.Globalization.Calendars",
      "version": "4.3.0",
      "purl": "pkg:nuget/System.Globalization.Calendars@4.3.0",
      "type": "library",
      "bom-ref": "pkg:nuget/System.Globalization.Calendars@4.3.0"
    },
    {
      "name": "System.Globalization.Extensions",
      "version": "4.3.0",
      "purl": "pkg:nuget/System.Globalization.Extensions@4.3.0",
      "type": "library",
      "bom-ref": "pkg:nuget/System.Globalization.Extensions@4.3.0"
    },
    {
      "name": "System.IO",
      "version": "4.3.0",
      "purl": "pkg:nuget/System.IO@4.3.0",
      "type": "library",
      "bom-ref": "pkg:nuget/System.IO@4.3.0"
    },
    {
      "name": "System.IO.Compression",
      "version": "4.3.0",
      "purl": "pkg:nuget/System.IO.Compression@4.3.0",
      "type": "library",
      "bom-ref": "pkg:nuget/System.IO.Compression@4.3.0"
    },
    {
      "name": "System.IO.Compression.ZipFile",
      "version": "4.3.0",
      "purl": "pkg:nuget/System.IO.Compression.ZipFile@4.3.0",
      "type": "library",
      "bom-ref": "pkg:nuget/System.IO.Compression.ZipFile@4.3.0"
    },
    {
      "name": "System.IO.FileSystem",
      "version": "4.3.0",
      "purl": "pkg:nuget/System.IO.FileSystem@4.3.0",
      "type": "library",
      "bom-ref": "pkg:nuget/System.IO.FileSystem@4.3.0"
    },
    {
      "name": "System.IO.FileSystem.Primitives",
      "version": "4.3.0",
      "purl": "pkg:nuget/System.IO.FileSystem.Primitives@4.3.0",
      "type": "library",
      "bom-ref": "pkg:nuget/System.IO.FileSystem.Primitives@4.3.0"
    },
    {
      "name": "System.Linq",
      "version": "4.3.0",
      "purl": "pkg:nuget/System.Linq@4.3.0",
      "type": "library",
      "bom-ref": "pkg:nuget/System.Linq@4.3.0"
    },
    {
      "name": "System.Linq.Expressions",
      "version": "4.3.0",
      "purl": "pkg:nuget/System.Linq.Expressions@4.3.0",
      "type": "library",
      "bom-ref": "pkg:nuget/System.Linq.Expressions@4.3.0"
    },
    {
      "name": "System.Linq.Queryable",
      "version": "4.0.1",
      "purl": "pkg:nuget/System.Linq.Queryable@4.0.1",
      "type": "library",
      "bom-ref": "pkg:nuget/System.Linq.Queryable@4.0.1"
    },
    {
      "name": "System.Net.Http",
      "version": "4.3.0",
      "purl": "pkg:nuget/System.Net.Http@4.3.0",
      "type": "library",
      "bom-ref": "pkg:nuget/System.Net.Http@4.3.0"
    },
    {
      "name": "System.Net.Primitives",
      "version": "4.3.0",
      "purl": "pkg:nuget/System.Net.Primitives@4.3.0",
      "type": "library",
      "bom-ref": "pkg:nuget/System.Net.Primitives@4.3.0"
    },
    {
      "name": "System.Net.Sockets",
      "version": "4.3.0",
      "purl": "pkg:nuget/System.Net.Sockets@4.3.0",
      "type": "library",
      "bom-ref": "pkg:nuget/System.Net.Sockets@4.3.0"
    },
    {
      "name": "System.ObjectModel",
      "version": "4.3.0",
      "purl": "pkg:nuget/System.ObjectModel@4.3.0",
      "type": "library",
      "bom-ref": "pkg:nuget/System.ObjectModel@4.3.0"
    },
    {
      "name": "System.Reflection",
      "version": "4.3.0",
      "purl": "pkg:nuget/System.Reflection@4.3.0",
      "type": "library",
      "bom-ref": "pkg:nuget/System.Reflection@4.3.0"
    },
    {
      "name": "System.Reflection.Emit",
      "version": "4.3.0",
      "purl": "pkg:nuget/System.Reflection.Emit@4.3.0",
      "type": "library",
      "bom-ref": "pkg:nuget/System.Reflection.Emit@4.3.0"
    },
    {
      "name": "System.Reflection.Emit.ILGeneration",
      "version": "4.3.0",
      "purl": "pkg:nuget/System.Reflection.Emit.ILGeneration@4.3.0",
      "type": "library",
      "bom-ref": "pkg:nuget/System.Reflection.Emit.ILGeneration@4.3.0"
    },
    {
      "name": "System.Reflection.Emit.Lightweight",
      "version": "4.3.0",
      "purl": "pkg:nuget/System.Reflection.Emit.Lightweight@4.3.0",
      "type": "library",
      "bom-ref": "pkg:nuget/System.Reflection.Emit.Lightweight@4.3.0"
    },
    {
      "name": "System.Reflection.Extensions",
      "version": "4.3.0",
      "purl": "pkg:nuget/System.Reflection.Extensions@4.3.0",
      "type": "library",
      "bom-ref": "pkg:nuget/System.Reflection.Extensions@4.3.0"
    },
    {
      "name": "System.Reflection.Primitives",
      "version": "4.3.0",
      "purl": "pkg:nuget/System.Reflection.Primitives@4.3.0",
      "type": "library",
      "bom-ref": "pkg:nuget/System.Reflection.Primitives@4.3.0"
    },
    {
      "name": "System.Reflection.TypeExtensions",
      "version": "4.3.0",
      "purl": "pkg:nuget/System.Reflection.TypeExtensions@4.3.0",
      "type": "library",
      "bom-ref": "pkg:nuget/System.Reflection.TypeExtensions@4.3.0"
    },
    {
      "name": "System.Resources.ResourceManager",
      "version": "4.3.0",
      "purl": "pkg:nuget/System.Resources.ResourceManager@4.3.0",
      "type": "library",
      "bom-ref": "pkg:nuget/System.Resources.ResourceManager@4.3.0"
    },
    {
      "name": "System.Runtime",
      "version": "4.3.0",
      "purl": "pkg:nuget/System.Runtime@4.3.0",
      "type": "library",
      "bom-ref": "pkg:nuget/System.Runtime@4.3.0"
    },
    {
      "name": "System.Runtime.Extensions",
      "version": "4.3.0",
      "purl": "pkg:nuget/System.Runtime.Extensions@4.3.0",
      "type": "library",
      "bom-ref": "pkg:nuget/System.Runtime.Extensions@4.3.0"
    },
    {
      "name": "System.Runtime.Handles",
      "version": "4.3.0",
      "purl": "pkg:nuget/System.Runtime.Handles@4.3.0",
      "type": "library",
      "bom-ref": "pkg:nuget/System.Runtime.Handles@4.3.0"
    },
    {
      "name": "System.Runtime.InteropServices",
      "version": "4.3.0",
      "purl": "pkg:nuget/System.Runtime.InteropServices@4.3.0",
      "type": "library",
      "bom-ref": "pkg:nuget/System.Runtime.InteropServices@4.3.0"
    },
    {
      "name": "System.Runtime.InteropServices.RuntimeInformation",
      "version": "4.3.0",
      "purl": "pkg:nuget/System.Runtime.InteropServices.RuntimeInformation@4.3.0",
      "type": "library",
      "bom-ref": "pkg:nuget/System.Runtime.InteropServices.RuntimeInformation@4.3.0"
    },
    {
      "name": "System.Runtime.Numerics",
      "version": "4.3.0",
      "purl": "pkg:nuget/System.Runtime.Numerics@4.3.0",
      "type": "library",
      "bom-ref": "pkg:nuget/System.Runtime.Numerics@4.3.0"
    },
    {
      "name": "System.Runtime.Serialization.Formatters",
      "version": "4.3.0",
      "purl": "pkg:nuget/System.Runtime.Serialization.Formatters@4.3.0",
      "type": "library",
      "bom-ref": "pkg:nuget/System.Runtime.Serialization.Formatters@4.3.0"
    },
    {
      "name": "System.Runtime.Serialization.Primitives",
      "version": "4.3.0",
      "purl": "pkg:nuget/System.Runtime.Serialization.Primitives@4.3.0",
      "type": "library",
      "bom-ref": "pkg:nuget/System.Runtime.Serialization.Primitives@4.3.0"
    },
    {
      "name": "System.Security.Cryptography.Algorithms",
      "version": "4.3.0",
      "purl": "pkg:nuget/System.Security.Cryptography.Algorithms@4.3.0",
      "type": "library",
      "bom-ref": "pkg:nuget/System.Security.Cryptography.Algorithms@4.3.0"
    },
    {
      "name": "System.Security.Cryptography.Cng",
      "version": "4.3.0",
      "purl": "pkg:nuget/System.Security.Cryptography.Cng@4.3.0",
      "type": "library",
      "bom-ref": "pkg:nuget/System.Security.Cryptography.Cng@4.3.0"
    },
    {
      "name": "System.Security.Cryptography.Csp",
      "version": "4.3.0",
      "purl": "pkg:nuget/System.Security.Cryptography.Csp@4.3.0",
      "type": "library",
      "bom-ref": "pkg:nuget/System.Security.Cryptography.Csp@4.3.0"
    },
    {
      "name": "System.Security.Cryptography.Encoding",
      "version": "4.3.0",
      "purl": "pkg:nuget/System.Security.Cryptography.Encoding@4.3.0",
      "type": "library",
      "bom-ref": "pkg:nuget/System.Security.Cryptography.Encoding@4.3.0"
    },
    {
      "name": "System.Security.Cryptography.OpenSsl",
      "version": "4.3.0",
      "purl": "pkg:nuget/System.Security.Cryptography.OpenSsl@4.3.0",
      "type": "library",
      "bom-ref": "pkg:nuget/System.Security.Cryptography.OpenSsl@4.3.0"
    },
    {
      "name": "System.Security.Cryptography.Primitives",
      "version": "4.3.0",
      "purl": "pkg:nuget/System.Security.Cryptography.Primitives@4.3.0",
      "type": "library",
      "bom-ref": "pkg:nuget/System.Security.Cryptography.Primitives@4.3.0"
    },
    {
      "name": "System.Security.Cryptography.ProtectedData",
      "version": "4.4.0",
      "purl": "pkg:nuget/System.Security.Cryptography.ProtectedData@4.4.0",
      "type": "library",
      "bom-ref": "pkg:nuget/System.Security.Cryptography.ProtectedData@4.4.0"
    },
    {
      "name": "System.Security.Cryptography.X509Certificates",
      "version": "4.3.0",
      "purl": "pkg:nuget/System.Security.Cryptography.X509Certificates@4.3.0",
      "type": "library",
      "bom-ref": "pkg:nuget/System.Security.Cryptography.X509Certificates@4.3.0"
    },
    {
      "name": "System.Text.Encoding",
      "version": "4.3.0",
      "purl": "pkg:nuget/System.Text.Encoding@4.3.0",
      "type": "library",
      "bom-ref": "pkg:nuget/System.Text.Encoding@4.3.0"
    },
    {
      "name": "System.Text.Encoding.Extensions",
      "version": "4.3.0",
      "purl": "pkg:nuget/System.Text.Encoding.Extensions@4.3.0",
      "type": "library",
      "bom-ref": "pkg:nuget/System.Text.Encoding.Extensions@4.3.0"
    },
    {
      "name": "System.Text.RegularExpressions",
      "version": "4.3.0",
      "purl": "pkg:nuget/System.Text.RegularExpressions@4.3.0",
      "type": "library",
      "bom-ref": "pkg:nuget/System.Text.RegularExpressions@4.3.0"
    },
    {
      "name": "System.Threading",
      "version": "4.3.0",
      "purl": "pkg:nuget/System.Threading@4.3.0",
      "type": "library",
      "bom-ref": "pkg:nuget/System.Threading@4.3.0"
    },
    {
      "name": "System.Threading.Tasks",
      "version": "4.3.0",
      "purl": "pkg:nuget/System.Threading.Tasks@4.3.0",
      "type": "library",
      "bom-ref": "pkg:nuget/System.Threading.Tasks@4.3.0"
    },
    {
      "name": "System.Threading.Tasks.Extensions",
      "version": "4.3.0",
      "purl": "pkg:nuget/System.Threading.Tasks.Extensions@4.3.0",
      "type": "library",
      "bom-ref": "pkg:nuget/System.Threading.Tasks.Extensions@4.3.0"
    },
    {
      "name": "System.Threading.Timer",
      "version": "4.3.0",
      "purl": "pkg:nuget/System.Threading.Timer@4.3.0",
      "type": "library",
      "bom-ref": "pkg:nuget/System.Threading.Timer@4.3.0"
    },
    {
      "name": "System.Xml.ReaderWriter",
      "version": "4.3.0",
      "purl": "pkg:nuget/System.Xml.ReaderWriter@4.3.0",
      "type": "library",
      "bom-ref": "pkg:nuget/System.Xml.ReaderWriter@4.3.0"
    },
    {
      "name": "System.Xml.XDocument",
      "version": "4.3.0",
      "purl": "pkg:nuget/System.Xml.XDocument@4.3.0",
      "type": "library",
      "bom-ref": "pkg:nuget/System.Xml.XDocument@4.3.0"
    },
    {
      "name": "T4Scaffolding.Core",
      "version": "1.0.0",
      "purl": "pkg:nuget/T4Scaffolding.Core@1.0.0",
      "type": "library",
      "bom-ref": "pkg:nuget/T4Scaffolding.Core@1.0.0"
    },
    {
      "name": "jive",
      "version": "0.1.0",
      "purl": "pkg:nuget/jive@0.1.0",
      "type": "library",
      "bom-ref": "pkg:nuget/jive@0.1.0"
    },
    {
      "name": "runtime.debian.8-x64.runtime.native.System.Security.Cryptography.OpenSsl",
      "version": "4.3.0",
      "purl": "pkg:nuget/runtime.debian.8-x64.runtime.native.System.Security.Cryptography.OpenSsl@4.3.0",
      "type": "library",
      "bom-ref": "pkg:nuget/runtime.debian.8-x64.runtime.native.System.Security.Cryptography.OpenSsl@4.3.0"
    },
    {
      "name": "runtime.fedora.23-x64.runtime.native.System.Security.Cryptography.OpenSsl",
      "version": "4.3.0",
      "purl": "pkg:nuget/runtime.fedora.23-x64.runtime.native.System.Security.Cryptography.OpenSsl@4.3.0",
      "type": "library",
      "bom-ref": "pkg:nuget/runtime.fedora.23-x64.runtime.native.System.Security.Cryptography.OpenSsl@4.3.0"
    },
    {
      "name": "runtime.fedora.24-x64.runtime.native.System.Security.Cryptography.OpenSsl",
      "version": "4.3.0",
      "purl": "pkg:nuget/runtime.fedora.24-x64.runtime.native.System.Security.Cryptography.OpenSsl@4.3.0",
      "type": "library",
      "bom-ref": "pkg:nuget/runtime.fedora.24-x64.runtime.native.System.Security.Cryptography.OpenSsl@4.3.0"
    },
    {
      "name": "runtime.native.System",
      "version": "4.3.0",
      "purl": "pkg:nuget/runtime.native.System@4.3.0",
      "type": "library",
      "bom-ref": "pkg:nuget/runtime.native.System@4.3.0"
    },
    {
      "name": "runtime.native.System.IO.Compression",
      "version": "4.3.0",
      "purl": "pkg:nuget/runtime.native.System.IO.Compression@4.3.0",
      "type": "library",
      "bom-ref": "pkg:nuget/runtime.native.System.IO.Compression@4.3.0"
    },
    {
      "name": "runtime.native.System.Net.Http",
      "version": "4.3.0",
      "purl": "pkg:nuget/runtime.native.System.Net.Http@4.3.0",
      "type": "library",
      "bom-ref": "pkg:nuget/runtime.native.System.Net.Http@4.3.0"
    },
    {
      "name": "runtime.native.System.Security.Cryptography.Apple",
      "version": "4.3.0",
      "purl": "pkg:nuget/runtime.native.System.Security.Cryptography.Apple@4.3.0",
      "type": "library",
      "bom-ref": "pkg:nuget/runtime.native.System.Security.Cryptography.Apple@4.3.0"
    },
    {
      "name": "runtime.native.System.Security.Cryptography.OpenSsl",
      "version": "4.3.0",
      "purl": "pkg:nuget/runtime.native.System.Security.Cryptography.OpenSsl@4.3.0",
      "type": "library",
      "bom-ref": "pkg:nuget/runtime.native.System.Security.Cryptography.OpenSsl@4.3.0"
    },
    {
      "name": "runtime.opensuse.13.2-x64.runtime.native.System.Security.Cryptography.OpenSsl",
      "version": "4.3.0",
      "purl": "pkg:nuget/runtime.opensuse.13.2-x64.runtime.native.System.Security.Cryptography.OpenSsl@4.3.0",
      "type": "library",
      "bom-ref": "pkg:nuget/runtime.opensuse.13.2-x64.runtime.native.System.Security.Cryptography.OpenSsl@4.3.0"
    },
    {
      "name": "runtime.opensuse.42.1-x64.runtime.native.System.Security.Cryptography.OpenSsl",
      "version": "4.3.0",
      "purl": "pkg:nuget/runtime.opensuse.42.1-x64.runtime.native.System.Security.Cryptography.OpenSsl@4.3.0",
      "type": "library",
      "bom-ref": "pkg:nuget/runtime.opensuse.42.1-x64.runtime.native.System.Security.Cryptography.OpenSsl@4.3.0"
    },
    {
      "name": "runtime.osx.10.10-x64.runtime.native.System.Security.Cryptography.Apple",
      "version": "4.3.0",
      "purl": "pkg:nuget/runtime.osx.10.10-x64.runtime.native.System.Security.Cryptography.Apple@4.3.0",
      "type": "library",
      "bom-ref": "pkg:nuget/runtime.osx.10.10-x64.runtime.native.System.Security.Cryptography.Apple@4.3.0"
    },
    {
      "name": "runtime.osx.10.10-x64.runtime.native.System.Security.Cryptography.OpenSsl",
      "version": "4.3.0",
      "purl": "pkg:nuget/runtime.osx.10.10-x64.runtime.native.System.Security.Cryptography.OpenSsl@4.3.0",
      "type": "library",
      "bom-ref": "pkg:nuget/runtime.osx.10.10-x64.runtime.native.System.Security.Cryptography.OpenSsl@4.3.0"
    },
    {
      "name": "runtime.rhel.7-x64.runtime.native.System.Security.Cryptography.OpenSsl",
      "version": "4.3.0",
      "purl": "pkg:nuget/runtime.rhel.7-x64.runtime.native.System.Security.Cryptography.OpenSsl@4.3.0",
      "type": "library",
      "bom-ref": "pkg:nuget/runtime.rhel.7-x64.runtime.native.System.Security.Cryptography.OpenSsl@4.3.0"
    },
    {
      "name": "runtime.ubuntu.14.04-x64.runtime.native.System.Security.Cryptography.OpenSsl",
      "version": "4.3.0",
      "purl": "pkg:nuget/runtime.ubuntu.14.04-x64.runtime.native.System.Security.Cryptography.OpenSsl@4.3.0",
      "type": "library",
      "bom-ref": "pkg:nuget/runtime.ubuntu.14.04-x64.runtime.native.System.Security.Cryptography.OpenSsl@4.3.0"
    },
    {
      "name": "runtime.ubuntu.16.04-x64.runtime.native.System.Security.Cryptography.OpenSsl",
      "version": "4.3.0",
      "purl": "pkg:nuget/runtime.ubuntu.16.04-x64.runtime.native.System.Security.Cryptography.OpenSsl@4.3.0",
      "type": "library",
      "bom-ref": "pkg:nuget/runtime.ubuntu.16.04-x64.runtime.native.System.Security.Cryptography.OpenSsl@4.3.0"
    },
    {
      "name": "runtime.ubuntu.16.10-x64.runtime.native.System.Security.Cryptography.OpenSsl",
      "version": "4.3.0",
      "purl": "pkg:nuget/runtime.ubuntu.16.10-x64.runtime.native.System.Security.Cryptography.OpenSsl@4.3.0",
      "type": "library",
      "bom-ref": "pkg:nuget/runtime.ubuntu.16.10-x64.runtime.native.System.Security.Cryptography.OpenSsl@4.3.0"
    }
  ]
}
