{
  "bomFormat": "CycloneDX",
  "specVersion": "1.4",
  "serialNumber": "urn:uuid:55d2d1b3-3b1c-4305-8b72-fda19d605893",
  "version": 1,
  "metadata": {
    "timestamp": "2022-02-23T07:59:12Z",
    "tools": [
      {
        "vendor": "GitLab",
        "name": "Gemnasium",
        "version": "2.34.0"
      }
    ],
    "authors": [
      {
        "name": "GitLab",
        "email": "support@gitlab.com"
      }
    ],
    "properties": [
      {
        "name": "gitlab:input_file",
        "value": "conan.lock"
      },
      {
        "name": "gitlab:package_manager",
        "value": "conan"
      }
    ]
  },
  "components": [
    {
      "name": "jerryscript",
      "version": "2.2.0",
      "purl": "pkg:conan/jerryscript@2.2.0",
      "type": "library",
      "bom-ref": "pkg:conan/jerryscript@2.2.0"
    },
    {
      "name": "wolfssl",
      "version": "4.4.0",
      "purl": "pkg:conan/wolfssl@4.4.0",
      "type": "library",
      "bom-ref": "pkg:conan/wolfssl@4.4.0"
    },
    {
      "name": "zstd",
      "version": "1.4.4",
      "purl": "pkg:conan/zstd@1.4.4",
      "type": "library",
      "bom-ref": "pkg:conan/zstd@1.4.4"
    }
  ]
}
