{
  "version": 2,
  "dependencies": {
    ".NETCoreApp,Version=v3.0": {
      "jive": {
        "type": "Direct",
        "requested": "[0.1.0, )",
        "resolved": "0.1.0",
        "contentHash": "oPBGSgY7X2/CMnWGDVdCIDnvaQGXfZz+hnC2PmvjStqDz72ZwNbkPqXYo47QyGOfLYdsp1aieP+Km2KyZMDUSg=="
      }
    }
  }
}
