{
  "version": "14.0.4",
  "vulnerabilities": [
    {
      "id": "ca638923e1c5469114b33cba762bdfb569001f426833a3bf59f3dded42db547f",
      "category": "dependency_scanning",
      "name": "Improper Restriction of Operations within the Bounds of a Memory Buffer",
      "message": "Improper Restriction of Operations within the Bounds of a Memory Buffer in jerryscript",
      "description": "An issue was discovered in `ecma/operations/ecma-container-object.c` in JerryScript. Operations with key/value pairs did not consider the case where garbage collection is triggered after the key operation but before the value operation, as demonstrated by improper read access to memory in `ecma_gc_set_object_visited` in `ecma/base/ecma-gc.c`.",
      "cve": "conan.lock:jerryscript:gemnasium:013a038e-8865-4f92-aedc-0796684481d4",
      "severity": "High",
      "solution": "Upgrade to version 2.3.0 or above.",
      "scanner": {
        "id": "gemnasium",
        "name": "Gemnasium"
      },
      "location": {
        "file": "conan.lock",
        "dependency": {
          "package": {
            "name": "jerryscript"
          },
          "version": "2.2.0"
        }
      },
      "identifiers": [
        {
          "type": "gemnasium",
          "name": "Gemnasium-013a038e-8865-4f92-aedc-0796684481d4",
          "value": "013a038e-8865-4f92-aedc-0796684481d4",
          "url": "https://gitlab.com/gitlab-org/security-products/gemnasium-db/-/blob/v1.2.142/conan/jerryscript/CVE-2020-14163.yml"
        },
        {
          "type": "cve",
          "name": "CVE-2020-14163",
          "value": "CVE-2020-14163",
          "url": "https://cve.mitre.org/cgi-bin/cvename.cgi?name=CVE-2020-14163"
        }
      ],
      "links": [
        {
          "url": "https://nvd.nist.gov/vuln/detail/CVE-2020-14163"
        }
      ],
      "details": {
        "vulnerable_package": {
          "name": "Vulnerable Package",
          "type": "text",
          "value": "jerryscript:2.2.0"
        }
      }
    },
    {
      "id": "b32389f602183ccdad53682fc4d876ab4cfc7186e13d4ddae0c03a2a794035a4",
      "category": "dependency_scanning",
      "name": "Uncontrolled Resource Consumption",
      "message": "Uncontrolled Resource Consumption in jerryscript",
      "description": "JerryScript allows attackers to cause a denial of service (stack consumption) via a proxy operation.",
      "cve": "conan.lock:jerryscript:gemnasium:1dbd122e-b5ab-4cf0-a81b-545500fcfd5e",
      "severity": "High",
      "solution": "Upgrade to version 2.3.0 or above.",
      "scanner": {
        "id": "gemnasium",
        "name": "Gemnasium"
      },
      "location": {
        "file": "conan.lock",
        "dependency": {
          "package": {
            "name": "jerryscript"
          },
          "version": "2.2.0"
        }
      },
      "identifiers": [
        {
          "type": "gemnasium",
          "name": "Gemnasium-1dbd122e-b5ab-4cf0-a81b-545500fcfd5e",
          "value": "1dbd122e-b5ab-4cf0-a81b-545500fcfd5e",
          "url": "https://gitlab.com/gitlab-org/security-products/gemnasium-db/-/blob/v1.2.142/conan/jerryscript/CVE-2020-13623.yml"
        },
        {
          "type": "cve",
          "name": "CVE-2020-13623",
          "value": "CVE-2020-13623",
          "url": "https://cve.mitre.org/cgi-bin/cvename.cgi?name=CVE-2020-13623"
        }
      ],
      "links": [
        {
          "url": "https://nvd.nist.gov/vuln/detail/CVE-2020-13623"
        }
      ],
      "details": {
        "vulnerable_package": {
          "name": "Vulnerable Package",
          "type": "text",
          "value": "jerryscript:2.2.0"
        }
      }
    },
    {
      "id": "c4593c32be37992218b8c74c1072154e52ab157ec76cd0ea55d79c5fdf29ea78",
      "category": "dependency_scanning",
      "name": "Reachable Assertion",
      "message": "Reachable Assertion in jerryscript",
      "description": "JerryScript allows attackers to cause a denial of service (assertion failure) because a property key query for a Proxy object returns unintended data.",
      "cve": "conan.lock:jerryscript:gemnasium:30e927ab-bba0-4585-a3b8-892baf51676e",
      "severity": "High",
      "solution": "Upgrade to version 2.3.0 or above.",
      "scanner": {
        "id": "gemnasium",
        "name": "Gemnasium"
      },
      "location": {
        "file": "conan.lock",
        "dependency": {
          "package": {
            "name": "jerryscript"
          },
          "version": "2.2.0"
        }
      },
      "identifiers": [
        {
          "type": "gemnasium",
          "name": "Gemnasium-30e927ab-bba0-4585-a3b8-892baf51676e",
          "value": "30e927ab-bba0-4585-a3b8-892baf51676e",
          "url": "https://gitlab.com/gitlab-org/security-products/gemnasium-db/-/blob/v1.2.142/conan/jerryscript/CVE-2020-13622.yml"
        },
        {
          "type": "cve",
          "name": "CVE-2020-13622",
          "value": "CVE-2020-13622",
          "url": "https://cve.mitre.org/cgi-bin/cvename.cgi?name=CVE-2020-13622"
        }
      ],
      "links": [
        {
          "url": "https://nvd.nist.gov/vuln/detail/CVE-2020-13622"
        }
      ],
      "details": {
        "vulnerable_package": {
          "name": "Vulnerable Package",
          "type": "text",
          "value": "jerryscript:2.2.0"
        }
      }
    },
    {
      "id": "41331483e58d19f0d33ed2ce19b0682e23aafa2b4fe6655eecf633db49fbfef0",
      "category": "dependency_scanning",
      "name": "Out-of-bounds Write",
      "message": "Out-of-bounds Write in jerryscript",
      "description": "JerryScript allows stack consumption via `function a(){new new Proxy(a,{})}JSON.parse(\"[]\",a).`",
      "cve": "conan.lock:jerryscript:gemnasium:57af9db1-0aaf-482d-b0b5-1ea4f2027ca0",
      "severity": "High",
      "solution": "Unfortunately, there is no solution available yet.",
      "scanner": {
        "id": "gemnasium",
        "name": "Gemnasium"
      },
      "location": {
        "file": "conan.lock",
        "dependency": {
          "package": {
            "name": "jerryscript"
          },
          "version": "2.2.0"
        }
      },
      "identifiers": [
        {
          "type": "gemnasium",
          "name": "Gemnasium-57af9db1-0aaf-482d-b0b5-1ea4f2027ca0",
          "value": "57af9db1-0aaf-482d-b0b5-1ea4f2027ca0",
          "url": "https://gitlab.com/gitlab-org/security-products/gemnasium-db/-/blob/v1.2.142/conan/jerryscript/CVE-2020-24345.yml"
        },
        {
          "type": "cve",
          "name": "CVE-2020-24345",
          "value": "CVE-2020-24345",
          "url": "https://cve.mitre.org/cgi-bin/cvename.cgi?name=CVE-2020-24345"
        }
      ],
      "links": [
        {
          "url": "https://github.com/jerryscript-project/jerryscript/issues/3977"
        },
        {
          "url": "https://nvd.nist.gov/vuln/detail/CVE-2020-24345"
        }
      ],
      "details": {
        "vulnerable_package": {
          "name": "Vulnerable Package",
          "type": "text",
          "value": "jerryscript:2.2.0"
        }
      }
    },
    {
      "id": "75b98d8ee9a4b2072e39aa227dc020ff9b91f10d598722bed73a8d6284f694d4",
      "category": "dependency_scanning",
      "name": "Out-of-bounds Read",
      "message": "Out-of-bounds Read in jerryscript",
      "description": "JerryScript is vulnerable to a buffer over-read.",
      "cve": "conan.lock:jerryscript:gemnasium:7c4e8b05-e4e2-43fc-8fea-665da419fd04",
      "severity": "High",
      "solution": "Unfortunately, there is no solution available yet.",
      "scanner": {
        "id": "gemnasium",
        "name": "Gemnasium"
      },
      "location": {
        "file": "conan.lock",
        "dependency": {
          "package": {
            "name": "jerryscript"
          },
          "version": "2.2.0"
        }
      },
      "identifiers": [
        {
          "type": "gemnasium",
          "name": "Gemnasium-7c4e8b05-e4e2-43fc-8fea-665da419fd04",
          "value": "7c4e8b05-e4e2-43fc-8fea-665da419fd04",
          "url": "https://gitlab.com/gitlab-org/security-products/gemnasium-db/-/blob/v1.2.142/conan/jerryscript/CVE-2020-24344.yml"
        },
        {
          "type": "cve",
          "name": "CVE-2020-24344",
          "value": "CVE-2020-24344",
          "url": "https://cve.mitre.org/cgi-bin/cvename.cgi?name=CVE-2020-24344"
        }
      ],
      "links": [
        {
          "url": "https://github.com/jerryscript-project/jerryscript/issues/3976"
        },
        {
          "url": "https://nvd.nist.gov/vuln/detail/CVE-2020-24344"
        }
      ],
      "details": {
        "vulnerable_package": {
          "name": "Vulnerable Package",
          "type": "text",
          "value": "jerryscript:2.2.0"
        }
      }
    },
    {
      "id": "06eb59b35fe5ea30fd2e423f7e99b715177427852006607ff3f0223aefd19d49",
      "category": "dependency_scanning",
      "name": "NULL Pointer Dereference",
      "message": "NULL Pointer Dereference in jerryscript",
      "description": "`parser/js/js-scanner.c` in JerryScript mishandles errors during certain out-of-memory conditions, as demonstrated by a `scanner_reverse_info_list` NULL pointer dereference and a `scanner_scan_all` assertion failure.",
      "cve": "conan.lock:jerryscript:gemnasium:e38493c1-c8ba-40b7-9d94-ea7fec727336",
      "severity": "High",
      "solution": "Upgrade to version 2.3.0 or above.",
      "scanner": {
        "id": "gemnasium",
        "name": "Gemnasium"
      },
      "location": {
        "file": "conan.lock",
        "dependency": {
          "package": {
            "name": "jerryscript"
          },
          "version": "2.2.0"
        }
      },
      "identifiers": [
        {
          "type": "gemnasium",
          "name": "Gemnasium-e38493c1-c8ba-40b7-9d94-ea7fec727336",
          "value": "e38493c1-c8ba-40b7-9d94-ea7fec727336",
          "url": "https://gitlab.com/gitlab-org/security-products/gemnasium-db/-/blob/v1.2.142/conan/jerryscript/CVE-2020-13649.yml"
        },
        {
          "type": "cve",
          "name": "CVE-2020-13649",
          "value": "CVE-2020-13649",
          "url": "https://cve.mitre.org/cgi-bin/cvename.cgi?name=CVE-2020-13649"
        }
      ],
      "links": [
        {
          "url": "https://nvd.nist.gov/vuln/detail/CVE-2020-13649"
        }
      ],
      "details": {
        "vulnerable_package": {
          "name": "Vulnerable Package",
          "type": "text",
          "value": "jerryscript:2.2.0"
        }
      }
    },
    {
      "id": "914f39cc3b8cdfcbc936d4be10a42d184dcbd63f2a84761fbedfecbeb716b713",
      "category": "dependency_scanning",
      "name": "Improper Input Validation",
      "message": "Improper Input Validation in wolfssl",
      "description": "wolfSSL mishandles the change_cipher_spec (CCS) message processing logic for TLS 1.3. If an attacker sends `ChangeCipherSpec` messages in a crafted way involving more than one in a row, the server becomes stuck in the `ProcessReply()` loop, i.e., a denial of service.",
      "cve": "conan.lock:wolfssl:gemnasium:3ecb7d77-2505-4ba8-8598-781d7bbfeaf8",
      "severity": "High",
      "solution": "Unfortunately, there is no solution available yet.",
      "scanner": {
        "id": "gemnasium",
        "name": "Gemnasium"
      },
      "location": {
        "file": "conan.lock",
        "dependency": {
          "package": {
            "name": "wolfssl"
          },
          "version": "4.4.0"
        }
      },
      "identifiers": [
        {
          "type": "gemnasium",
          "name": "Gemnasium-3ecb7d77-2505-4ba8-8598-781d7bbfeaf8",
          "value": "3ecb7d77-2505-4ba8-8598-781d7bbfeaf8",
          "url": "https://gitlab.com/gitlab-org/security-products/gemnasium-db/-/blob/v1.2.142/conan/wolfssl/CVE-2020-12457.yml"
        },
        {
          "type": "cve",
          "name": "CVE-2020-12457",
          "value": "CVE-2020-12457",
          "url": "https://cve.mitre.org/cgi-bin/cvename.cgi?name=CVE-2020-12457"
        }
      ],
      "links": [
        {
          "url": "https://nvd.nist.gov/vuln/detail/CVE-2020-12457"
        }
      ],
      "details": {
        "vulnerable_package": {
          "name": "Vulnerable Package",
          "type": "text",
          "value": "wolfssl:4.4.0"
        }
      }
    },
    {
      "id": "57e90b084eec945d9c32a59bbd3959b2132265477ae282eb3216d3022609b782",
      "category": "dependency_scanning",
      "name": "Concurrent Execution using Shared Resource with Improper Synchronization (Race Condition)",
      "message": "Concurrent Execution using Shared Resource with Improper Synchronization (Race Condition) in wolfssl",
      "description": "An issue was discovered in wolfSSL when single precision is not employed. Local attackers can conduct a cache-timing attack against public key operations. These attackers may already have obtained sensitive information if the affected system has been used for private key operations (e.g., signing with a private key).",
      "cve": "conan.lock:wolfssl:gemnasium:f23a47a2-7a1d-46fa-a245-f9d92b1e7e2a",
      "severity": "High",
      "solution": "Unfortunately, there is no solution available yet.",
      "scanner": {
        "id": "gemnasium",
        "name": "Gemnasium"
      },
      "location": {
        "file": "conan.lock",
        "dependency": {
          "package": {
            "name": "wolfssl"
          },
          "version": "4.4.0"
        }
      },
      "identifiers": [
        {
          "type": "gemnasium",
          "name": "Gemnasium-f23a47a2-7a1d-46fa-a245-f9d92b1e7e2a",
          "value": "f23a47a2-7a1d-46fa-a245-f9d92b1e7e2a",
          "url": "https://gitlab.com/gitlab-org/security-products/gemnasium-db/-/blob/v1.2.142/conan/wolfssl/CVE-2020-15309.yml"
        },
        {
          "type": "cve",
          "name": "CVE-2020-15309",
          "value": "CVE-2020-15309",
          "url": "https://cve.mitre.org/cgi-bin/cvename.cgi?name=CVE-2020-15309"
        }
      ],
      "links": [
        {
          "url": "https://nvd.nist.gov/vuln/detail/CVE-2020-15309"
        }
      ],
      "details": {
        "vulnerable_package": {
          "name": "Vulnerable Package",
          "type": "text",
          "value": "wolfssl:4.4.0"
        }
      }
    },
    {
      "id": "f0e6142b73997550fd4c16a9b277c7bb682f5e1418b705139f8cf8126aa34265",
      "category": "dependency_scanning",
      "name": "Cryptographic Issues",
      "message": "Cryptographic Issues in wolfssl",
      "description": "An issue was discovered in the DTLS handshake implementation in wolfSSL. Clear DTLS application_data messages in epoch 0 do not produce an out-of-order error. Instead, these messages are returned to the application.",
      "cve": "conan.lock:wolfssl:gemnasium:e93de5b9-5b92-465c-a764-4851ad6920b0",
      "severity": "Medium",
      "solution": "Unfortunately, there is no solution available yet.",
      "scanner": {
        "id": "gemnasium",
        "name": "Gemnasium"
      },
      "location": {
        "file": "conan.lock",
        "dependency": {
          "package": {
            "name": "wolfssl"
          },
          "version": "4.4.0"
        }
      },
      "identifiers": [
        {
          "type": "gemnasium",
          "name": "Gemnasium-e93de5b9-5b92-465c-a764-4851ad6920b0",
          "value": "e93de5b9-5b92-465c-a764-4851ad6920b0",
          "url": "https://gitlab.com/gitlab-org/security-products/gemnasium-db/-/blob/v1.2.142/conan/wolfssl/CVE-2020-24585.yml"
        },
        {
          "type": "cve",
          "name": "CVE-2020-24585",
          "value": "CVE-2020-24585",
          "url": "https://cve.mitre.org/cgi-bin/cvename.cgi?name=CVE-2020-24585"
        }
      ],
      "links": [
        {
          "url": "https://nvd.nist.gov/vuln/detail/CVE-2020-24585"
        }
      ],
      "details": {
        "vulnerable_package": {
          "name": "Vulnerable Package",
          "type": "text",
          "value": "wolfssl:4.4.0"
        }
      }
    },
    {
      "id": "6dd756d508f1d64d66f212eb912b9eb0464b2b36f2ac19305e467de7a3847146",
      "category": "dependency_scanning",
      "name": "Improper Certificate Validation",
      "message": "Improper Certificate Validation in wolfssl",
      "description": "wolfSSL mishandles TLS server data in the `WAIT_CERT_CR` state, within `SanityCheckTls13MsgReceived()` in `tls13.c`. This is an incorrect implementation of the TLS client state machine. This allows attackers in a privileged network position to completely impersonate any TLS servers, and read or modify potentially sensitive information between clients using the wolfSSL library and these TLS servers.",
      "cve": "conan.lock:wolfssl:gemnasium:f334f11b-6d5d-4654-97b6-101f6faa0ad3",
      "severity": "Medium",
      "solution": "Unfortunately, there is no solution available yet.",
      "scanner": {
        "id": "gemnasium",
        "name": "Gemnasium"
      },
      "location": {
        "file": "conan.lock",
        "dependency": {
          "package": {
            "name": "wolfssl"
          },
          "version": "4.4.0"
        }
      },
      "identifiers": [
        {
          "type": "gemnasium",
          "name": "Gemnasium-f334f11b-6d5d-4654-97b6-101f6faa0ad3",
          "value": "f334f11b-6d5d-4654-97b6-101f6faa0ad3",
          "url": "https://gitlab.com/gitlab-org/security-products/gemnasium-db/-/blob/v1.2.142/conan/wolfssl/CVE-2020-24613.yml"
        },
        {
          "type": "cve",
          "name": "CVE-2020-24613",
          "value": "CVE-2020-24613",
          "url": "https://cve.mitre.org/cgi-bin/cvename.cgi?name=CVE-2020-24613"
        }
      ],
      "links": [
        {
          "url": "https://nvd.nist.gov/vuln/detail/CVE-2020-24613"
        }
      ],
      "details": {
        "vulnerable_package": {
          "name": "Vulnerable Package",
          "type": "text",
          "value": "wolfssl:4.4.0"
        }
      }
    }
  ],
  "dependency_files": [
    {
      "path": "conan.lock",
      "package_manager": "conan",
      "dependencies": [
        {
          "package": {
            "name": "jerryscript"
          },
          "version": "2.2.0"
        },
        {
          "package": {
            "name": "wolfssl"
          },
          "version": "4.4.0"
        },
        {
          "package": {
            "name": "zstd"
          },
          "version": "1.4.4"
        }
      ]
    }
  ],
  "scan": {
    "scanner": {
      "id": "gemnasium",
      "name": "Gemnasium",
      "url": "https://gitlab.com/gitlab-org/security-products/analyzers/gemnasium",
      "vendor": {
        "name": "GitLab"
      },
      "version": "2.33.0"
    },
    "type": "dependency_scanning",
    "start_time": "2022-02-16T04:36:57",
    "end_time": "2022-02-16T04:36:59",
    "status": "success"
  }
}
